G04 #@! TF.GenerationSoftware,KiCad,Pcbnew,5.1.5*
G04 #@! TF.CreationDate,2020-01-09T21:17:44+01:00*
G04 #@! TF.ProjectId,pcb_aura,7063625f-6175-4726-912e-6b696361645f,rev?*
G04 #@! TF.SameCoordinates,Original*
G04 #@! TF.FileFunction,Copper,L2,Bot*
G04 #@! TF.FilePolarity,Positive*
%FSLAX46Y46*%
G04 Gerber Fmt 4.6, Leading zero omitted, Abs format (unit mm)*
G04 Created by KiCad (PCBNEW 5.1.5) date 2020-01-09 21:17:44*
%MOMM*%
%LPD*%
G04 APERTURE LIST*
%ADD10C,2.000000*%
%ADD11R,2.000000X2.000000*%
%ADD12O,1.700000X1.700000*%
%ADD13R,1.700000X1.700000*%
%ADD14R,3.200000X2.000000*%
%ADD15C,0.800000*%
%ADD16C,0.400000*%
%ADD17C,0.250000*%
%ADD18C,0.254000*%
G04 APERTURE END LIST*
D10*
X111486000Y-116903500D03*
D11*
X103886000Y-116903500D03*
D12*
X122555000Y-101727000D03*
X120015000Y-101727000D03*
X117475000Y-101727000D03*
X114935000Y-101727000D03*
D13*
X112395000Y-101727000D03*
D12*
X121820000Y-146431000D03*
X119280000Y-146431000D03*
X116740000Y-146431000D03*
D13*
X114200000Y-146431000D03*
D12*
X121158000Y-128651000D03*
D13*
X118618000Y-128651000D03*
D12*
X115887500Y-124523500D03*
D13*
X115887500Y-121983500D03*
X130175000Y-128651000D03*
D12*
X130175000Y-131191000D03*
X130175000Y-133731000D03*
X130175000Y-136271000D03*
X130175000Y-138811000D03*
X126136400Y-146431000D03*
X126136400Y-143891000D03*
X126136400Y-141351000D03*
X126136400Y-138811000D03*
X126136400Y-136271000D03*
X126136400Y-133731000D03*
X126136400Y-131191000D03*
D13*
X126136400Y-128651000D03*
D12*
X103276400Y-146431000D03*
X103276400Y-143891000D03*
X103276400Y-141351000D03*
X103276400Y-138811000D03*
X103276400Y-136271000D03*
X103276400Y-133731000D03*
X103276400Y-131191000D03*
D13*
X103276400Y-128651000D03*
D11*
X117729000Y-109575600D03*
D10*
X117729000Y-112075600D03*
X117729000Y-114575600D03*
D14*
X125229000Y-106475600D03*
X125229000Y-117675600D03*
D10*
X132229000Y-109575600D03*
X132229000Y-114575600D03*
D15*
X108140500Y-127254000D03*
X106362500Y-122428000D03*
X114046000Y-106489500D03*
X117030500Y-106489500D03*
X111887000Y-105473500D03*
X125666500Y-120967500D03*
X125666500Y-122301000D03*
X125666500Y-123571000D03*
X128841500Y-120967500D03*
X114300000Y-127063500D03*
X111633000Y-138176000D03*
X120586500Y-137033000D03*
X108140500Y-131127500D03*
X118999000Y-131064000D03*
X120650000Y-115697000D03*
X123748800Y-138811000D03*
X122618500Y-131000500D03*
X121539000Y-138176000D03*
X120840500Y-139255500D03*
X111633000Y-123507500D03*
D16*
X108540499Y-126854001D02*
X108540499Y-126002999D01*
X108140500Y-127254000D02*
X108540499Y-126854001D01*
X108540499Y-126002999D02*
X106362500Y-123825000D01*
X106362500Y-123825000D02*
X106362500Y-122428000D01*
D17*
X114046000Y-106489500D02*
X117030500Y-106489500D01*
X103301800Y-133705600D02*
X103276400Y-133731000D01*
X108069601Y-131377400D02*
X108140500Y-131306501D01*
X107759500Y-131127500D02*
X108140500Y-131127500D01*
X103276400Y-133731000D02*
X104648000Y-132359400D01*
X104648000Y-132080000D02*
X105086990Y-131641010D01*
X105086990Y-131641010D02*
X107245990Y-131641010D01*
X104648000Y-132359400D02*
X104648000Y-132080000D01*
X107245990Y-131641010D02*
X107759500Y-131127500D01*
X103276400Y-138811000D02*
X104902000Y-137185400D01*
X104902000Y-137185400D02*
X104902000Y-134429500D01*
X104902000Y-134429500D02*
X104903101Y-134430601D01*
X131635500Y-130873500D02*
X131318000Y-131191000D01*
X119671965Y-117437035D02*
X119639510Y-117469490D01*
X124524910Y-127190500D02*
X131127500Y-127190500D01*
X120650000Y-115697000D02*
X120650000Y-116433465D01*
X119639510Y-117469490D02*
X119639510Y-125989510D01*
X131635500Y-127698500D02*
X131635500Y-130873500D01*
X120650000Y-116433465D02*
X119671965Y-117411500D01*
X131318000Y-131191000D02*
X130175000Y-131191000D01*
X119639510Y-125989510D02*
X119755490Y-126105490D01*
X119671965Y-117411500D02*
X119671965Y-117437035D01*
X123439901Y-126105491D02*
X124524910Y-127190500D01*
X119755490Y-126105490D02*
X123439901Y-126105491D01*
X131127500Y-127190500D02*
X131635500Y-127698500D01*
X109283500Y-131064000D02*
X117475000Y-131064000D01*
X108494999Y-131852501D02*
X109283500Y-131064000D01*
X104902000Y-132842000D02*
X105652980Y-132091020D01*
X105652980Y-132091020D02*
X107680436Y-132091020D01*
X104902000Y-134429500D02*
X104902000Y-132842000D01*
X117475000Y-131064000D02*
X118999000Y-131064000D01*
X107680436Y-132091020D02*
X107918955Y-131852501D01*
X107918955Y-131852501D02*
X108494999Y-131852501D01*
X118728999Y-126413909D02*
X119320600Y-127005510D01*
X117729000Y-114575600D02*
X118728999Y-115575599D01*
X118728999Y-115575599D02*
X118728999Y-126413909D01*
X119320600Y-127005510D02*
X123067100Y-127005510D01*
X121481998Y-131064000D02*
X118999000Y-131064000D01*
X122307498Y-130238500D02*
X121481998Y-131064000D01*
X122936000Y-130238500D02*
X122307498Y-130238500D01*
X123374990Y-129799510D02*
X122936000Y-130238500D01*
X123374990Y-127313400D02*
X123374990Y-129799510D01*
X123067100Y-127005510D02*
X123374990Y-127313400D01*
X103276400Y-131191000D02*
X106934000Y-131191000D01*
X107251500Y-128714500D02*
X107759500Y-128206500D01*
X106934000Y-131191000D02*
X107251500Y-130873500D01*
X107251500Y-130873500D02*
X107251500Y-128714500D01*
X107759500Y-128206500D02*
X115379500Y-128206500D01*
X115379500Y-128206500D02*
X115824000Y-127762000D01*
X115824000Y-127762000D02*
X115824000Y-126555500D01*
X115824000Y-126555500D02*
X114808000Y-125539500D01*
X114808000Y-125539500D02*
X114490500Y-125539500D01*
X114490500Y-125539500D02*
X114173000Y-125222000D01*
X114173000Y-125222000D02*
X114173000Y-122555000D01*
X114744500Y-121983500D02*
X115887500Y-121983500D01*
X114173000Y-122555000D02*
X114744500Y-121983500D01*
X123507500Y-131000500D02*
X122618500Y-131000500D01*
X130175000Y-128651000D02*
X129075000Y-128651000D01*
X129075000Y-128651000D02*
X127805000Y-129921000D01*
X124148799Y-138411001D02*
X123748800Y-138811000D01*
X124148799Y-127450799D02*
X124148799Y-138411001D01*
X119507000Y-126555500D02*
X123253500Y-126555500D01*
X118979000Y-109575600D02*
X119507000Y-110103600D01*
X119507000Y-116840000D02*
X119189500Y-117157500D01*
X123253500Y-126555500D02*
X124148799Y-127450799D01*
X119189500Y-117157500D02*
X119189500Y-126238000D01*
X119189500Y-126238000D02*
X119507000Y-126555500D01*
X117729000Y-109575600D02*
X118979000Y-109575600D01*
X119507000Y-110103600D02*
X119507000Y-116840000D01*
X124148799Y-130359201D02*
X124148799Y-127450799D01*
X123507500Y-131000500D02*
X124148799Y-130359201D01*
X125121398Y-129921000D02*
X127805000Y-129921000D01*
X124961399Y-129761001D02*
X125121398Y-129921000D01*
X124338510Y-127640510D02*
X124148799Y-127450799D01*
X124961399Y-127818899D02*
X124783010Y-127640510D01*
X124783010Y-127640510D02*
X124338510Y-127640510D01*
X124961399Y-129761001D02*
X124961399Y-127818899D01*
X124961399Y-137446001D02*
X126136400Y-136271000D01*
X124961399Y-139307813D02*
X124961399Y-137446001D01*
X124569212Y-139700000D02*
X124961399Y-139307813D01*
X121539000Y-139700000D02*
X124569212Y-139700000D01*
X121303210Y-139935790D02*
X121539000Y-139700000D01*
X121820000Y-144870500D02*
X121793000Y-144843500D01*
X121820000Y-146431000D02*
X121820000Y-144870500D01*
X121793000Y-144843500D02*
X121602500Y-144843500D01*
X121303210Y-144544210D02*
X121303210Y-139935790D01*
X121602500Y-144843500D02*
X121303210Y-144544210D01*
X121565501Y-138202501D02*
X121539000Y-138176000D01*
X121539000Y-139700000D02*
X121565501Y-139673499D01*
X121565501Y-139673499D02*
X121565501Y-138202501D01*
X119280000Y-145061000D02*
X119280000Y-146431000D01*
X120840500Y-139255500D02*
X120853200Y-139268200D01*
X119253000Y-145034000D02*
X119280000Y-145061000D01*
X120853200Y-139268200D02*
X120853200Y-144449800D01*
X120853200Y-144449800D02*
X120459500Y-144843500D01*
X120459500Y-144843500D02*
X119443500Y-144843500D01*
X119443500Y-144843500D02*
X119253000Y-145034000D01*
X120813999Y-128497499D02*
X120813999Y-128941999D01*
X121476910Y-128524000D02*
X121539000Y-128524000D01*
X111633000Y-117050500D02*
X111486000Y-116903500D01*
X111633000Y-123507500D02*
X111633000Y-117050500D01*
D18*
G36*
X110919188Y-100752518D02*
G01*
X110906928Y-100877000D01*
X110906928Y-102577000D01*
X110919188Y-102701482D01*
X110955498Y-102821180D01*
X111014463Y-102931494D01*
X111093815Y-103028185D01*
X111190506Y-103107537D01*
X111300820Y-103166502D01*
X111420518Y-103202812D01*
X111545000Y-103215072D01*
X113245000Y-103215072D01*
X113369482Y-103202812D01*
X113489180Y-103166502D01*
X113599494Y-103107537D01*
X113696185Y-103028185D01*
X113775537Y-102931494D01*
X113834502Y-102821180D01*
X113858966Y-102740534D01*
X113934731Y-102824588D01*
X114168080Y-102998641D01*
X114430901Y-103123825D01*
X114578110Y-103168476D01*
X114808000Y-103047155D01*
X114808000Y-101854000D01*
X114788000Y-101854000D01*
X114788000Y-101600000D01*
X114808000Y-101600000D01*
X114808000Y-101580000D01*
X115062000Y-101580000D01*
X115062000Y-101600000D01*
X115082000Y-101600000D01*
X115082000Y-101854000D01*
X115062000Y-101854000D01*
X115062000Y-103047155D01*
X115291890Y-103168476D01*
X115439099Y-103123825D01*
X115701920Y-102998641D01*
X115935269Y-102824588D01*
X116130178Y-102608355D01*
X116199805Y-102491466D01*
X116321525Y-102673632D01*
X116528368Y-102880475D01*
X116771589Y-103042990D01*
X117041842Y-103154932D01*
X117328740Y-103212000D01*
X117621260Y-103212000D01*
X117908158Y-103154932D01*
X118178411Y-103042990D01*
X118421632Y-102880475D01*
X118628475Y-102673632D01*
X118745000Y-102499240D01*
X118861525Y-102673632D01*
X119068368Y-102880475D01*
X119311589Y-103042990D01*
X119581842Y-103154932D01*
X119868740Y-103212000D01*
X120161260Y-103212000D01*
X120448158Y-103154932D01*
X120718411Y-103042990D01*
X120961632Y-102880475D01*
X121168475Y-102673632D01*
X121285000Y-102499240D01*
X121401525Y-102673632D01*
X121608368Y-102880475D01*
X121851589Y-103042990D01*
X122121842Y-103154932D01*
X122408740Y-103212000D01*
X122701260Y-103212000D01*
X122988158Y-103154932D01*
X123258411Y-103042990D01*
X123501632Y-102880475D01*
X123708475Y-102673632D01*
X123805036Y-102529117D01*
X129965000Y-102529117D01*
X129965000Y-102870883D01*
X130031675Y-103206081D01*
X130162463Y-103521831D01*
X130352337Y-103805998D01*
X130594002Y-104047663D01*
X130878169Y-104237537D01*
X131193919Y-104368325D01*
X131529117Y-104435000D01*
X131870883Y-104435000D01*
X132206081Y-104368325D01*
X132521831Y-104237537D01*
X132805998Y-104047663D01*
X133047663Y-103805998D01*
X133237537Y-103521831D01*
X133368325Y-103206081D01*
X133435000Y-102870883D01*
X133435000Y-102529117D01*
X133368325Y-102193919D01*
X133237537Y-101878169D01*
X133047663Y-101594002D01*
X132805998Y-101352337D01*
X132521831Y-101162463D01*
X132206081Y-101031675D01*
X131870883Y-100965000D01*
X131529117Y-100965000D01*
X131193919Y-101031675D01*
X130878169Y-101162463D01*
X130594002Y-101352337D01*
X130352337Y-101594002D01*
X130162463Y-101878169D01*
X130031675Y-102193919D01*
X129965000Y-102529117D01*
X123805036Y-102529117D01*
X123870990Y-102430411D01*
X123982932Y-102160158D01*
X124040000Y-101873260D01*
X124040000Y-101580740D01*
X123982932Y-101293842D01*
X123870990Y-101023589D01*
X123708475Y-100780368D01*
X123588107Y-100660000D01*
X133467723Y-100660000D01*
X133662540Y-100679102D01*
X133818894Y-100726308D01*
X133963096Y-100802982D01*
X134089663Y-100906207D01*
X134193769Y-101032051D01*
X134271447Y-101175711D01*
X134319742Y-101331729D01*
X134340000Y-101524473D01*
X134340001Y-148467712D01*
X134320898Y-148662540D01*
X134273692Y-148818895D01*
X134197018Y-148963096D01*
X134093792Y-149089664D01*
X133967951Y-149193768D01*
X133824289Y-149271447D01*
X133668271Y-149319742D01*
X133475527Y-149340000D01*
X101532277Y-149340000D01*
X101337460Y-149320898D01*
X101181105Y-149273692D01*
X101036904Y-149197018D01*
X100910336Y-149093792D01*
X100806232Y-148967951D01*
X100728553Y-148824289D01*
X100680258Y-148668271D01*
X100660000Y-148475527D01*
X100660000Y-127801000D01*
X101788328Y-127801000D01*
X101788328Y-129501000D01*
X101800588Y-129625482D01*
X101836898Y-129745180D01*
X101895863Y-129855494D01*
X101975215Y-129952185D01*
X102071906Y-130031537D01*
X102182220Y-130090502D01*
X102254780Y-130112513D01*
X102122925Y-130244368D01*
X101960410Y-130487589D01*
X101848468Y-130757842D01*
X101791400Y-131044740D01*
X101791400Y-131337260D01*
X101848468Y-131624158D01*
X101960410Y-131894411D01*
X102122925Y-132137632D01*
X102329768Y-132344475D01*
X102504160Y-132461000D01*
X102329768Y-132577525D01*
X102122925Y-132784368D01*
X101960410Y-133027589D01*
X101848468Y-133297842D01*
X101791400Y-133584740D01*
X101791400Y-133877260D01*
X101848468Y-134164158D01*
X101960410Y-134434411D01*
X102122925Y-134677632D01*
X102329768Y-134884475D01*
X102504160Y-135001000D01*
X102329768Y-135117525D01*
X102122925Y-135324368D01*
X101960410Y-135567589D01*
X101848468Y-135837842D01*
X101791400Y-136124740D01*
X101791400Y-136417260D01*
X101848468Y-136704158D01*
X101960410Y-136974411D01*
X102122925Y-137217632D01*
X102329768Y-137424475D01*
X102504160Y-137541000D01*
X102329768Y-137657525D01*
X102122925Y-137864368D01*
X101960410Y-138107589D01*
X101848468Y-138377842D01*
X101791400Y-138664740D01*
X101791400Y-138957260D01*
X101848468Y-139244158D01*
X101960410Y-139514411D01*
X102122925Y-139757632D01*
X102329768Y-139964475D01*
X102504160Y-140081000D01*
X102329768Y-140197525D01*
X102122925Y-140404368D01*
X101960410Y-140647589D01*
X101848468Y-140917842D01*
X101791400Y-141204740D01*
X101791400Y-141497260D01*
X101848468Y-141784158D01*
X101960410Y-142054411D01*
X102122925Y-142297632D01*
X102329768Y-142504475D01*
X102504160Y-142621000D01*
X102329768Y-142737525D01*
X102122925Y-142944368D01*
X101960410Y-143187589D01*
X101848468Y-143457842D01*
X101791400Y-143744740D01*
X101791400Y-144037260D01*
X101848468Y-144324158D01*
X101960410Y-144594411D01*
X102122925Y-144837632D01*
X102329768Y-145044475D01*
X102504160Y-145161000D01*
X102329768Y-145277525D01*
X102122925Y-145484368D01*
X101960410Y-145727589D01*
X101848468Y-145997842D01*
X101791400Y-146284740D01*
X101791400Y-146577260D01*
X101848468Y-146864158D01*
X101960410Y-147134411D01*
X102122925Y-147377632D01*
X102329768Y-147584475D01*
X102572989Y-147746990D01*
X102843242Y-147858932D01*
X103130140Y-147916000D01*
X103422660Y-147916000D01*
X103709558Y-147858932D01*
X103979811Y-147746990D01*
X104223032Y-147584475D01*
X104429875Y-147377632D01*
X104592390Y-147134411D01*
X104704332Y-146864158D01*
X104761400Y-146577260D01*
X104761400Y-146429117D01*
X106265000Y-146429117D01*
X106265000Y-146770883D01*
X106331675Y-147106081D01*
X106462463Y-147421831D01*
X106652337Y-147705998D01*
X106894002Y-147947663D01*
X107178169Y-148137537D01*
X107493919Y-148268325D01*
X107829117Y-148335000D01*
X108170883Y-148335000D01*
X108506081Y-148268325D01*
X108821831Y-148137537D01*
X109105998Y-147947663D01*
X109347663Y-147705998D01*
X109537537Y-147421831D01*
X109668325Y-147106081D01*
X109735000Y-146770883D01*
X109735000Y-146429117D01*
X109668325Y-146093919D01*
X109537537Y-145778169D01*
X109405794Y-145581000D01*
X112711928Y-145581000D01*
X112711928Y-147281000D01*
X112724188Y-147405482D01*
X112760498Y-147525180D01*
X112819463Y-147635494D01*
X112898815Y-147732185D01*
X112995506Y-147811537D01*
X113105820Y-147870502D01*
X113225518Y-147906812D01*
X113350000Y-147919072D01*
X115050000Y-147919072D01*
X115174482Y-147906812D01*
X115294180Y-147870502D01*
X115404494Y-147811537D01*
X115501185Y-147732185D01*
X115580537Y-147635494D01*
X115639502Y-147525180D01*
X115663966Y-147444534D01*
X115739731Y-147528588D01*
X115973080Y-147702641D01*
X116235901Y-147827825D01*
X116383110Y-147872476D01*
X116613000Y-147751155D01*
X116613000Y-146558000D01*
X116593000Y-146558000D01*
X116593000Y-146304000D01*
X116613000Y-146304000D01*
X116613000Y-145110845D01*
X116383110Y-144989524D01*
X116235901Y-145034175D01*
X115973080Y-145159359D01*
X115739731Y-145333412D01*
X115663966Y-145417466D01*
X115639502Y-145336820D01*
X115580537Y-145226506D01*
X115501185Y-145129815D01*
X115404494Y-145050463D01*
X115294180Y-144991498D01*
X115174482Y-144955188D01*
X115050000Y-144942928D01*
X113350000Y-144942928D01*
X113225518Y-144955188D01*
X113105820Y-144991498D01*
X112995506Y-145050463D01*
X112898815Y-145129815D01*
X112819463Y-145226506D01*
X112760498Y-145336820D01*
X112724188Y-145456518D01*
X112711928Y-145581000D01*
X109405794Y-145581000D01*
X109347663Y-145494002D01*
X109105998Y-145252337D01*
X108821831Y-145062463D01*
X108506081Y-144931675D01*
X108170883Y-144865000D01*
X107829117Y-144865000D01*
X107493919Y-144931675D01*
X107178169Y-145062463D01*
X106894002Y-145252337D01*
X106652337Y-145494002D01*
X106462463Y-145778169D01*
X106331675Y-146093919D01*
X106265000Y-146429117D01*
X104761400Y-146429117D01*
X104761400Y-146284740D01*
X104704332Y-145997842D01*
X104592390Y-145727589D01*
X104429875Y-145484368D01*
X104223032Y-145277525D01*
X104048640Y-145161000D01*
X104223032Y-145044475D01*
X104429875Y-144837632D01*
X104592390Y-144594411D01*
X104704332Y-144324158D01*
X104761400Y-144037260D01*
X104761400Y-143744740D01*
X104704332Y-143457842D01*
X104592390Y-143187589D01*
X104429875Y-142944368D01*
X104223032Y-142737525D01*
X104048640Y-142621000D01*
X104223032Y-142504475D01*
X104429875Y-142297632D01*
X104592390Y-142054411D01*
X104704332Y-141784158D01*
X104761400Y-141497260D01*
X104761400Y-141204740D01*
X104704332Y-140917842D01*
X104592390Y-140647589D01*
X104429875Y-140404368D01*
X104223032Y-140197525D01*
X104048640Y-140081000D01*
X104223032Y-139964475D01*
X104429875Y-139757632D01*
X104592390Y-139514411D01*
X104704332Y-139244158D01*
X104761400Y-138957260D01*
X104761400Y-138664740D01*
X104717610Y-138444592D01*
X105413004Y-137749198D01*
X105442001Y-137725401D01*
X105536974Y-137609676D01*
X105607546Y-137477647D01*
X105651003Y-137334386D01*
X105662000Y-137222733D01*
X105662000Y-137222732D01*
X105665677Y-137185400D01*
X105662000Y-137148067D01*
X105662000Y-134479101D01*
X105666777Y-134430600D01*
X105662000Y-134382099D01*
X105662000Y-133156801D01*
X105967782Y-132851020D01*
X107643114Y-132851020D01*
X107680436Y-132854696D01*
X107717758Y-132851020D01*
X107717769Y-132851020D01*
X107829422Y-132840023D01*
X107972683Y-132796566D01*
X108104712Y-132725994D01*
X108220437Y-132631021D01*
X108235636Y-132612501D01*
X108457677Y-132612501D01*
X108494999Y-132616177D01*
X108532321Y-132612501D01*
X108532332Y-132612501D01*
X108643985Y-132601504D01*
X108787246Y-132558047D01*
X108919275Y-132487475D01*
X109035000Y-132392502D01*
X109058802Y-132363499D01*
X109598302Y-131824000D01*
X118295289Y-131824000D01*
X118339226Y-131867937D01*
X118508744Y-131981205D01*
X118697102Y-132059226D01*
X118897061Y-132099000D01*
X119100939Y-132099000D01*
X119300898Y-132059226D01*
X119489256Y-131981205D01*
X119658774Y-131867937D01*
X119702711Y-131824000D01*
X121444676Y-131824000D01*
X121481998Y-131827676D01*
X121519320Y-131824000D01*
X121519331Y-131824000D01*
X121630984Y-131813003D01*
X121774245Y-131769546D01*
X121871728Y-131717439D01*
X121958726Y-131804437D01*
X122128244Y-131917705D01*
X122316602Y-131995726D01*
X122516561Y-132035500D01*
X122720439Y-132035500D01*
X122920398Y-131995726D01*
X123108756Y-131917705D01*
X123278274Y-131804437D01*
X123322211Y-131760500D01*
X123388799Y-131760500D01*
X123388800Y-137839841D01*
X123258544Y-137893795D01*
X123089026Y-138007063D01*
X122944863Y-138151226D01*
X122831595Y-138320744D01*
X122753574Y-138509102D01*
X122713800Y-138709061D01*
X122713800Y-138912939D01*
X122719183Y-138940000D01*
X122325501Y-138940000D01*
X122325501Y-138853210D01*
X122342937Y-138835774D01*
X122456205Y-138666256D01*
X122534226Y-138477898D01*
X122574000Y-138277939D01*
X122574000Y-138074061D01*
X122534226Y-137874102D01*
X122456205Y-137685744D01*
X122342937Y-137516226D01*
X122198774Y-137372063D01*
X122029256Y-137258795D01*
X121840898Y-137180774D01*
X121640939Y-137141000D01*
X121437061Y-137141000D01*
X121237102Y-137180774D01*
X121048744Y-137258795D01*
X120879226Y-137372063D01*
X120735063Y-137516226D01*
X120621795Y-137685744D01*
X120543774Y-137874102D01*
X120504000Y-138074061D01*
X120504000Y-138274607D01*
X120350244Y-138338295D01*
X120180726Y-138451563D01*
X120036563Y-138595726D01*
X119923295Y-138765244D01*
X119845274Y-138953602D01*
X119805500Y-139153561D01*
X119805500Y-139357439D01*
X119845274Y-139557398D01*
X119923295Y-139745756D01*
X120036563Y-139915274D01*
X120093200Y-139971911D01*
X120093201Y-144083500D01*
X119480825Y-144083500D01*
X119443500Y-144079824D01*
X119406175Y-144083500D01*
X119406167Y-144083500D01*
X119294514Y-144094497D01*
X119151253Y-144137954D01*
X119019224Y-144208526D01*
X118903499Y-144303499D01*
X118879696Y-144332503D01*
X118742003Y-144470196D01*
X118712999Y-144493999D01*
X118641154Y-144581543D01*
X118618026Y-144609724D01*
X118547454Y-144741754D01*
X118503998Y-144885015D01*
X118489324Y-145034000D01*
X118502199Y-145164716D01*
X118333368Y-145277525D01*
X118126525Y-145484368D01*
X118004805Y-145666534D01*
X117935178Y-145549645D01*
X117740269Y-145333412D01*
X117506920Y-145159359D01*
X117244099Y-145034175D01*
X117096890Y-144989524D01*
X116867000Y-145110845D01*
X116867000Y-146304000D01*
X116887000Y-146304000D01*
X116887000Y-146558000D01*
X116867000Y-146558000D01*
X116867000Y-147751155D01*
X117096890Y-147872476D01*
X117244099Y-147827825D01*
X117506920Y-147702641D01*
X117740269Y-147528588D01*
X117935178Y-147312355D01*
X118004805Y-147195466D01*
X118126525Y-147377632D01*
X118333368Y-147584475D01*
X118576589Y-147746990D01*
X118846842Y-147858932D01*
X119133740Y-147916000D01*
X119426260Y-147916000D01*
X119713158Y-147858932D01*
X119983411Y-147746990D01*
X120226632Y-147584475D01*
X120433475Y-147377632D01*
X120550000Y-147203240D01*
X120666525Y-147377632D01*
X120873368Y-147584475D01*
X121116589Y-147746990D01*
X121386842Y-147858932D01*
X121673740Y-147916000D01*
X121966260Y-147916000D01*
X122253158Y-147858932D01*
X122523411Y-147746990D01*
X122766632Y-147584475D01*
X122973475Y-147377632D01*
X123135990Y-147134411D01*
X123247932Y-146864158D01*
X123305000Y-146577260D01*
X123305000Y-146284740D01*
X124651400Y-146284740D01*
X124651400Y-146577260D01*
X124708468Y-146864158D01*
X124820410Y-147134411D01*
X124982925Y-147377632D01*
X125189768Y-147584475D01*
X125432989Y-147746990D01*
X125703242Y-147858932D01*
X125990140Y-147916000D01*
X126282660Y-147916000D01*
X126569558Y-147858932D01*
X126839811Y-147746990D01*
X127083032Y-147584475D01*
X127289875Y-147377632D01*
X127452390Y-147134411D01*
X127564332Y-146864158D01*
X127621400Y-146577260D01*
X127621400Y-146429117D01*
X129965000Y-146429117D01*
X129965000Y-146770883D01*
X130031675Y-147106081D01*
X130162463Y-147421831D01*
X130352337Y-147705998D01*
X130594002Y-147947663D01*
X130878169Y-148137537D01*
X131193919Y-148268325D01*
X131529117Y-148335000D01*
X131870883Y-148335000D01*
X132206081Y-148268325D01*
X132521831Y-148137537D01*
X132805998Y-147947663D01*
X133047663Y-147705998D01*
X133237537Y-147421831D01*
X133368325Y-147106081D01*
X133435000Y-146770883D01*
X133435000Y-146429117D01*
X133368325Y-146093919D01*
X133237537Y-145778169D01*
X133047663Y-145494002D01*
X132805998Y-145252337D01*
X132521831Y-145062463D01*
X132206081Y-144931675D01*
X131870883Y-144865000D01*
X131529117Y-144865000D01*
X131193919Y-144931675D01*
X130878169Y-145062463D01*
X130594002Y-145252337D01*
X130352337Y-145494002D01*
X130162463Y-145778169D01*
X130031675Y-146093919D01*
X129965000Y-146429117D01*
X127621400Y-146429117D01*
X127621400Y-146284740D01*
X127564332Y-145997842D01*
X127452390Y-145727589D01*
X127289875Y-145484368D01*
X127083032Y-145277525D01*
X126900866Y-145155805D01*
X127017755Y-145086178D01*
X127233988Y-144891269D01*
X127408041Y-144657920D01*
X127533225Y-144395099D01*
X127577876Y-144247890D01*
X127456555Y-144018000D01*
X126263400Y-144018000D01*
X126263400Y-144038000D01*
X126009400Y-144038000D01*
X126009400Y-144018000D01*
X124816245Y-144018000D01*
X124694924Y-144247890D01*
X124739575Y-144395099D01*
X124864759Y-144657920D01*
X125038812Y-144891269D01*
X125255045Y-145086178D01*
X125371934Y-145155805D01*
X125189768Y-145277525D01*
X124982925Y-145484368D01*
X124820410Y-145727589D01*
X124708468Y-145997842D01*
X124651400Y-146284740D01*
X123305000Y-146284740D01*
X123247932Y-145997842D01*
X123135990Y-145727589D01*
X122973475Y-145484368D01*
X122766632Y-145277525D01*
X122580000Y-145152822D01*
X122580000Y-144907825D01*
X122583676Y-144870500D01*
X122580000Y-144833175D01*
X122580000Y-144833167D01*
X122569003Y-144721514D01*
X122525546Y-144578253D01*
X122454974Y-144446224D01*
X122360001Y-144330499D01*
X122345171Y-144318329D01*
X122333001Y-144303499D01*
X122217276Y-144208526D01*
X122085247Y-144137954D01*
X122063210Y-144131269D01*
X122063210Y-140460000D01*
X124531890Y-140460000D01*
X124569212Y-140463676D01*
X124606534Y-140460000D01*
X124606545Y-140460000D01*
X124718198Y-140449003D01*
X124861459Y-140405546D01*
X124993488Y-140334974D01*
X125109213Y-140240001D01*
X125133016Y-140210997D01*
X125303527Y-140040486D01*
X125364160Y-140081000D01*
X125189768Y-140197525D01*
X124982925Y-140404368D01*
X124820410Y-140647589D01*
X124708468Y-140917842D01*
X124651400Y-141204740D01*
X124651400Y-141497260D01*
X124708468Y-141784158D01*
X124820410Y-142054411D01*
X124982925Y-142297632D01*
X125189768Y-142504475D01*
X125371934Y-142626195D01*
X125255045Y-142695822D01*
X125038812Y-142890731D01*
X124864759Y-143124080D01*
X124739575Y-143386901D01*
X124694924Y-143534110D01*
X124816245Y-143764000D01*
X126009400Y-143764000D01*
X126009400Y-143744000D01*
X126263400Y-143744000D01*
X126263400Y-143764000D01*
X127456555Y-143764000D01*
X127577876Y-143534110D01*
X127533225Y-143386901D01*
X127408041Y-143124080D01*
X127233988Y-142890731D01*
X127017755Y-142695822D01*
X126900866Y-142626195D01*
X127083032Y-142504475D01*
X127289875Y-142297632D01*
X127452390Y-142054411D01*
X127564332Y-141784158D01*
X127621400Y-141497260D01*
X127621400Y-141204740D01*
X127564332Y-140917842D01*
X127452390Y-140647589D01*
X127289875Y-140404368D01*
X127083032Y-140197525D01*
X126908640Y-140081000D01*
X127083032Y-139964475D01*
X127289875Y-139757632D01*
X127452390Y-139514411D01*
X127564332Y-139244158D01*
X127579502Y-139167890D01*
X128733524Y-139167890D01*
X128778175Y-139315099D01*
X128903359Y-139577920D01*
X129077412Y-139811269D01*
X129293645Y-140006178D01*
X129543748Y-140155157D01*
X129818109Y-140252481D01*
X130048000Y-140131814D01*
X130048000Y-138938000D01*
X130302000Y-138938000D01*
X130302000Y-140131814D01*
X130531891Y-140252481D01*
X130806252Y-140155157D01*
X131056355Y-140006178D01*
X131272588Y-139811269D01*
X131446641Y-139577920D01*
X131571825Y-139315099D01*
X131616476Y-139167890D01*
X131495155Y-138938000D01*
X130302000Y-138938000D01*
X130048000Y-138938000D01*
X128854845Y-138938000D01*
X128733524Y-139167890D01*
X127579502Y-139167890D01*
X127621400Y-138957260D01*
X127621400Y-138664740D01*
X127564332Y-138377842D01*
X127452390Y-138107589D01*
X127289875Y-137864368D01*
X127083032Y-137657525D01*
X126908640Y-137541000D01*
X127083032Y-137424475D01*
X127289875Y-137217632D01*
X127452390Y-136974411D01*
X127564332Y-136704158D01*
X127621400Y-136417260D01*
X127621400Y-136124740D01*
X127564332Y-135837842D01*
X127452390Y-135567589D01*
X127289875Y-135324368D01*
X127083032Y-135117525D01*
X126908640Y-135001000D01*
X127083032Y-134884475D01*
X127289875Y-134677632D01*
X127452390Y-134434411D01*
X127564332Y-134164158D01*
X127621400Y-133877260D01*
X127621400Y-133584740D01*
X127564332Y-133297842D01*
X127452390Y-133027589D01*
X127289875Y-132784368D01*
X127083032Y-132577525D01*
X126908640Y-132461000D01*
X127083032Y-132344475D01*
X127289875Y-132137632D01*
X127452390Y-131894411D01*
X127564332Y-131624158D01*
X127621400Y-131337260D01*
X127621400Y-131044740D01*
X127564332Y-130757842D01*
X127532503Y-130681000D01*
X127767678Y-130681000D01*
X127805000Y-130684676D01*
X127842322Y-130681000D01*
X127842333Y-130681000D01*
X127953986Y-130670003D01*
X128097247Y-130626546D01*
X128229276Y-130555974D01*
X128345001Y-130461001D01*
X128368804Y-130431997D01*
X128862457Y-129938345D01*
X128873815Y-129952185D01*
X128970506Y-130031537D01*
X129080820Y-130090502D01*
X129153380Y-130112513D01*
X129021525Y-130244368D01*
X128859010Y-130487589D01*
X128747068Y-130757842D01*
X128690000Y-131044740D01*
X128690000Y-131337260D01*
X128747068Y-131624158D01*
X128859010Y-131894411D01*
X129021525Y-132137632D01*
X129228368Y-132344475D01*
X129402760Y-132461000D01*
X129228368Y-132577525D01*
X129021525Y-132784368D01*
X128859010Y-133027589D01*
X128747068Y-133297842D01*
X128690000Y-133584740D01*
X128690000Y-133877260D01*
X128747068Y-134164158D01*
X128859010Y-134434411D01*
X129021525Y-134677632D01*
X129228368Y-134884475D01*
X129402760Y-135001000D01*
X129228368Y-135117525D01*
X129021525Y-135324368D01*
X128859010Y-135567589D01*
X128747068Y-135837842D01*
X128690000Y-136124740D01*
X128690000Y-136417260D01*
X128747068Y-136704158D01*
X128859010Y-136974411D01*
X129021525Y-137217632D01*
X129228368Y-137424475D01*
X129410534Y-137546195D01*
X129293645Y-137615822D01*
X129077412Y-137810731D01*
X128903359Y-138044080D01*
X128778175Y-138306901D01*
X128733524Y-138454110D01*
X128854845Y-138684000D01*
X130048000Y-138684000D01*
X130048000Y-138664000D01*
X130302000Y-138664000D01*
X130302000Y-138684000D01*
X131495155Y-138684000D01*
X131616476Y-138454110D01*
X131571825Y-138306901D01*
X131446641Y-138044080D01*
X131272588Y-137810731D01*
X131056355Y-137615822D01*
X130939466Y-137546195D01*
X131121632Y-137424475D01*
X131328475Y-137217632D01*
X131490990Y-136974411D01*
X131602932Y-136704158D01*
X131660000Y-136417260D01*
X131660000Y-136124740D01*
X131602932Y-135837842D01*
X131490990Y-135567589D01*
X131328475Y-135324368D01*
X131121632Y-135117525D01*
X130947240Y-135001000D01*
X131121632Y-134884475D01*
X131328475Y-134677632D01*
X131490990Y-134434411D01*
X131602932Y-134164158D01*
X131660000Y-133877260D01*
X131660000Y-133584740D01*
X131602932Y-133297842D01*
X131490990Y-133027589D01*
X131328475Y-132784368D01*
X131121632Y-132577525D01*
X130947240Y-132461000D01*
X131121632Y-132344475D01*
X131328475Y-132137632D01*
X131460071Y-131940684D01*
X131466986Y-131940003D01*
X131610247Y-131896546D01*
X131742276Y-131825974D01*
X131858001Y-131731001D01*
X131881804Y-131701997D01*
X132146497Y-131437304D01*
X132175501Y-131413501D01*
X132270474Y-131297776D01*
X132341046Y-131165747D01*
X132384503Y-131022486D01*
X132395500Y-130910833D01*
X132395500Y-130910823D01*
X132399176Y-130873500D01*
X132395500Y-130836177D01*
X132395500Y-127735822D01*
X132399176Y-127698499D01*
X132395500Y-127661176D01*
X132395500Y-127661167D01*
X132384503Y-127549514D01*
X132341046Y-127406253D01*
X132270474Y-127274224D01*
X132175501Y-127158499D01*
X132146503Y-127134702D01*
X131691303Y-126679502D01*
X131667501Y-126650499D01*
X131551776Y-126555526D01*
X131419747Y-126484954D01*
X131276486Y-126441497D01*
X131164833Y-126430500D01*
X131164822Y-126430500D01*
X131127500Y-126426824D01*
X131090178Y-126430500D01*
X124839713Y-126430500D01*
X124003698Y-125594487D01*
X123979902Y-125565491D01*
X123948232Y-125539500D01*
X123864177Y-125470517D01*
X123732147Y-125399945D01*
X123632343Y-125369671D01*
X123588887Y-125356489D01*
X123477234Y-125345492D01*
X123439901Y-125341815D01*
X123402569Y-125345492D01*
X120399510Y-125345490D01*
X120399510Y-117758756D01*
X121161003Y-116997264D01*
X121190001Y-116973466D01*
X121284974Y-116857741D01*
X121355546Y-116725712D01*
X121370747Y-116675600D01*
X122990928Y-116675600D01*
X122990928Y-118675600D01*
X123003188Y-118800082D01*
X123039498Y-118919780D01*
X123098463Y-119030094D01*
X123177815Y-119126785D01*
X123274506Y-119206137D01*
X123384820Y-119265102D01*
X123504518Y-119301412D01*
X123629000Y-119313672D01*
X126829000Y-119313672D01*
X126953482Y-119301412D01*
X127073180Y-119265102D01*
X127183494Y-119206137D01*
X127280185Y-119126785D01*
X127359537Y-119030094D01*
X127418502Y-118919780D01*
X127454812Y-118800082D01*
X127467072Y-118675600D01*
X127467072Y-116675600D01*
X127454812Y-116551118D01*
X127418502Y-116431420D01*
X127359537Y-116321106D01*
X127280185Y-116224415D01*
X127183494Y-116145063D01*
X127073180Y-116086098D01*
X126953482Y-116049788D01*
X126829000Y-116037528D01*
X123629000Y-116037528D01*
X123504518Y-116049788D01*
X123384820Y-116086098D01*
X123274506Y-116145063D01*
X123177815Y-116224415D01*
X123098463Y-116321106D01*
X123039498Y-116431420D01*
X123003188Y-116551118D01*
X122990928Y-116675600D01*
X121370747Y-116675600D01*
X121399003Y-116582451D01*
X121410000Y-116470798D01*
X121410000Y-116470789D01*
X121413676Y-116433466D01*
X121410410Y-116400301D01*
X121453937Y-116356774D01*
X121567205Y-116187256D01*
X121645226Y-115998898D01*
X121685000Y-115798939D01*
X121685000Y-115595061D01*
X121645226Y-115395102D01*
X121567205Y-115206744D01*
X121453937Y-115037226D01*
X121309774Y-114893063D01*
X121140256Y-114779795D01*
X120951898Y-114701774D01*
X120751939Y-114662000D01*
X120548061Y-114662000D01*
X120348102Y-114701774D01*
X120267000Y-114735368D01*
X120267000Y-114414567D01*
X130594000Y-114414567D01*
X130594000Y-114736633D01*
X130656832Y-115052512D01*
X130780082Y-115350063D01*
X130959013Y-115617852D01*
X131186748Y-115845587D01*
X131454537Y-116024518D01*
X131752088Y-116147768D01*
X132067967Y-116210600D01*
X132390033Y-116210600D01*
X132705912Y-116147768D01*
X133003463Y-116024518D01*
X133271252Y-115845587D01*
X133498987Y-115617852D01*
X133677918Y-115350063D01*
X133801168Y-115052512D01*
X133864000Y-114736633D01*
X133864000Y-114414567D01*
X133801168Y-114098688D01*
X133677918Y-113801137D01*
X133498987Y-113533348D01*
X133271252Y-113305613D01*
X133003463Y-113126682D01*
X132705912Y-113003432D01*
X132390033Y-112940600D01*
X132067967Y-112940600D01*
X131752088Y-113003432D01*
X131454537Y-113126682D01*
X131186748Y-113305613D01*
X130959013Y-113533348D01*
X130780082Y-113801137D01*
X130656832Y-114098688D01*
X130594000Y-114414567D01*
X120267000Y-114414567D01*
X120267000Y-110711013D01*
X131273192Y-110711013D01*
X131368956Y-110975414D01*
X131658571Y-111116304D01*
X131970108Y-111197984D01*
X132291595Y-111217318D01*
X132610675Y-111173561D01*
X132915088Y-111068395D01*
X133089044Y-110975414D01*
X133184808Y-110711013D01*
X132229000Y-109755205D01*
X131273192Y-110711013D01*
X120267000Y-110711013D01*
X120267000Y-110140925D01*
X120270676Y-110103600D01*
X120267000Y-110066275D01*
X120267000Y-110066267D01*
X120256003Y-109954614D01*
X120212546Y-109811353D01*
X120141974Y-109679324D01*
X120108221Y-109638195D01*
X130587282Y-109638195D01*
X130631039Y-109957275D01*
X130736205Y-110261688D01*
X130829186Y-110435644D01*
X131093587Y-110531408D01*
X132049395Y-109575600D01*
X132408605Y-109575600D01*
X133364413Y-110531408D01*
X133628814Y-110435644D01*
X133769704Y-110146029D01*
X133851384Y-109834492D01*
X133870718Y-109513005D01*
X133826961Y-109193925D01*
X133721795Y-108889512D01*
X133628814Y-108715556D01*
X133364413Y-108619792D01*
X132408605Y-109575600D01*
X132049395Y-109575600D01*
X131093587Y-108619792D01*
X130829186Y-108715556D01*
X130688296Y-109005171D01*
X130606616Y-109316708D01*
X130587282Y-109638195D01*
X120108221Y-109638195D01*
X120047001Y-109563599D01*
X120018003Y-109539802D01*
X119542803Y-109064602D01*
X119519001Y-109035599D01*
X119403276Y-108940626D01*
X119367072Y-108921274D01*
X119367072Y-108575600D01*
X119354812Y-108451118D01*
X119351497Y-108440187D01*
X131273192Y-108440187D01*
X132229000Y-109395995D01*
X133184808Y-108440187D01*
X133089044Y-108175786D01*
X132799429Y-108034896D01*
X132487892Y-107953216D01*
X132166405Y-107933882D01*
X131847325Y-107977639D01*
X131542912Y-108082805D01*
X131368956Y-108175786D01*
X131273192Y-108440187D01*
X119351497Y-108440187D01*
X119318502Y-108331420D01*
X119259537Y-108221106D01*
X119180185Y-108124415D01*
X119083494Y-108045063D01*
X118973180Y-107986098D01*
X118853482Y-107949788D01*
X118729000Y-107937528D01*
X116729000Y-107937528D01*
X116604518Y-107949788D01*
X116484820Y-107986098D01*
X116374506Y-108045063D01*
X116277815Y-108124415D01*
X116198463Y-108221106D01*
X116139498Y-108331420D01*
X116103188Y-108451118D01*
X116090928Y-108575600D01*
X116090928Y-110575600D01*
X116103188Y-110700082D01*
X116139498Y-110819780D01*
X116198463Y-110930094D01*
X116277815Y-111026785D01*
X116374506Y-111106137D01*
X116478223Y-111161576D01*
X116329186Y-111215556D01*
X116188296Y-111505171D01*
X116106616Y-111816708D01*
X116087282Y-112138195D01*
X116131039Y-112457275D01*
X116236205Y-112761688D01*
X116329186Y-112935644D01*
X116593587Y-113031408D01*
X117549395Y-112075600D01*
X117535253Y-112061458D01*
X117714858Y-111881853D01*
X117729000Y-111895995D01*
X117743143Y-111881853D01*
X117922748Y-112061458D01*
X117908605Y-112075600D01*
X117922748Y-112089743D01*
X117743143Y-112269348D01*
X117729000Y-112255205D01*
X116773192Y-113211013D01*
X116783935Y-113240675D01*
X116686748Y-113305613D01*
X116459013Y-113533348D01*
X116280082Y-113801137D01*
X116156832Y-114098688D01*
X116094000Y-114414567D01*
X116094000Y-114736633D01*
X116156832Y-115052512D01*
X116280082Y-115350063D01*
X116459013Y-115617852D01*
X116686748Y-115845587D01*
X116954537Y-116024518D01*
X117252088Y-116147768D01*
X117567967Y-116210600D01*
X117890033Y-116210600D01*
X117968999Y-116194893D01*
X117969000Y-126376577D01*
X117965323Y-126413909D01*
X117979997Y-126562894D01*
X118023453Y-126706155D01*
X118094025Y-126838185D01*
X118143323Y-126898254D01*
X118188999Y-126953910D01*
X118217997Y-126977708D01*
X118403217Y-127162928D01*
X117768000Y-127162928D01*
X117643518Y-127175188D01*
X117523820Y-127211498D01*
X117413506Y-127270463D01*
X117316815Y-127349815D01*
X117237463Y-127446506D01*
X117178498Y-127556820D01*
X117142188Y-127676518D01*
X117129928Y-127801000D01*
X117129928Y-129501000D01*
X117142188Y-129625482D01*
X117178498Y-129745180D01*
X117237463Y-129855494D01*
X117316815Y-129952185D01*
X117413506Y-130031537D01*
X117523820Y-130090502D01*
X117643518Y-130126812D01*
X117768000Y-130139072D01*
X118527389Y-130139072D01*
X118508744Y-130146795D01*
X118339226Y-130260063D01*
X118295289Y-130304000D01*
X109320823Y-130304000D01*
X109283500Y-130300324D01*
X109246177Y-130304000D01*
X109246167Y-130304000D01*
X109134514Y-130314997D01*
X108991253Y-130358454D01*
X108889535Y-130412824D01*
X108800274Y-130323563D01*
X108630756Y-130210295D01*
X108442398Y-130132274D01*
X108242439Y-130092500D01*
X108038561Y-130092500D01*
X108011500Y-130097883D01*
X108011500Y-129029301D01*
X108074302Y-128966500D01*
X115342178Y-128966500D01*
X115379500Y-128970176D01*
X115416822Y-128966500D01*
X115416833Y-128966500D01*
X115528486Y-128955503D01*
X115671747Y-128912046D01*
X115803776Y-128841474D01*
X115919501Y-128746501D01*
X115943304Y-128717497D01*
X116334998Y-128325803D01*
X116364001Y-128302001D01*
X116425779Y-128226724D01*
X116458974Y-128186277D01*
X116529546Y-128054247D01*
X116540254Y-128018946D01*
X116573003Y-127910986D01*
X116584000Y-127799333D01*
X116584000Y-127799323D01*
X116587676Y-127762000D01*
X116584000Y-127724677D01*
X116584000Y-126592822D01*
X116587676Y-126555500D01*
X116584000Y-126518177D01*
X116584000Y-126518167D01*
X116573003Y-126406514D01*
X116529546Y-126263253D01*
X116477930Y-126166687D01*
X116458974Y-126131223D01*
X116387799Y-126044497D01*
X116364001Y-126015499D01*
X116335003Y-125991701D01*
X116291553Y-125948251D01*
X116518752Y-125867657D01*
X116768855Y-125718678D01*
X116985088Y-125523769D01*
X117159141Y-125290420D01*
X117284325Y-125027599D01*
X117328976Y-124880390D01*
X117207655Y-124650500D01*
X116014500Y-124650500D01*
X116014500Y-124670500D01*
X115760500Y-124670500D01*
X115760500Y-124650500D01*
X115740500Y-124650500D01*
X115740500Y-124396500D01*
X115760500Y-124396500D01*
X115760500Y-124376500D01*
X116014500Y-124376500D01*
X116014500Y-124396500D01*
X117207655Y-124396500D01*
X117328976Y-124166610D01*
X117284325Y-124019401D01*
X117159141Y-123756580D01*
X116985088Y-123523231D01*
X116901034Y-123447466D01*
X116981680Y-123423002D01*
X117091994Y-123364037D01*
X117188685Y-123284685D01*
X117268037Y-123187994D01*
X117327002Y-123077680D01*
X117363312Y-122957982D01*
X117375572Y-122833500D01*
X117375572Y-121133500D01*
X117363312Y-121009018D01*
X117327002Y-120889320D01*
X117268037Y-120779006D01*
X117188685Y-120682315D01*
X117091994Y-120602963D01*
X116981680Y-120543998D01*
X116861982Y-120507688D01*
X116737500Y-120495428D01*
X115037500Y-120495428D01*
X114913018Y-120507688D01*
X114793320Y-120543998D01*
X114683006Y-120602963D01*
X114586315Y-120682315D01*
X114506963Y-120779006D01*
X114447998Y-120889320D01*
X114411688Y-121009018D01*
X114399428Y-121133500D01*
X114399428Y-121306190D01*
X114320223Y-121348526D01*
X114266032Y-121393000D01*
X114204499Y-121443499D01*
X114180700Y-121472498D01*
X113661998Y-121991201D01*
X113633000Y-122014999D01*
X113609202Y-122043997D01*
X113609201Y-122043998D01*
X113538026Y-122130724D01*
X113467454Y-122262754D01*
X113466982Y-122264311D01*
X113423998Y-122406014D01*
X113413532Y-122512274D01*
X113409324Y-122555000D01*
X113413001Y-122592332D01*
X113413000Y-125184677D01*
X113409324Y-125222000D01*
X113413000Y-125259322D01*
X113413000Y-125259332D01*
X113423997Y-125370985D01*
X113455344Y-125474324D01*
X113467454Y-125514246D01*
X113538026Y-125646276D01*
X113572667Y-125688486D01*
X113632999Y-125762001D01*
X113662003Y-125785804D01*
X113926696Y-126050497D01*
X113950499Y-126079501D01*
X114066224Y-126174474D01*
X114198253Y-126245046D01*
X114341514Y-126288503D01*
X114453167Y-126299500D01*
X114453177Y-126299500D01*
X114490500Y-126303176D01*
X114496303Y-126302604D01*
X115064001Y-126870302D01*
X115064000Y-127446500D01*
X109157486Y-127446500D01*
X109164859Y-127409434D01*
X109238135Y-127320147D01*
X109315671Y-127175088D01*
X109363417Y-127017690D01*
X109373945Y-126910798D01*
X109379539Y-126854002D01*
X109375499Y-126812983D01*
X109375499Y-126044017D01*
X109379539Y-126002999D01*
X109373901Y-125945754D01*
X109363417Y-125839310D01*
X109315671Y-125681912D01*
X109238135Y-125536853D01*
X109219582Y-125514246D01*
X109159938Y-125441569D01*
X109159936Y-125441567D01*
X109133790Y-125409708D01*
X109101931Y-125383562D01*
X107197500Y-123479133D01*
X107197500Y-123041285D01*
X107279705Y-122918256D01*
X107357726Y-122729898D01*
X107397500Y-122529939D01*
X107397500Y-122326061D01*
X107357726Y-122126102D01*
X107279705Y-121937744D01*
X107166437Y-121768226D01*
X107022274Y-121624063D01*
X106852756Y-121510795D01*
X106664398Y-121432774D01*
X106464439Y-121393000D01*
X106260561Y-121393000D01*
X106060602Y-121432774D01*
X105872244Y-121510795D01*
X105702726Y-121624063D01*
X105558563Y-121768226D01*
X105445295Y-121937744D01*
X105367274Y-122126102D01*
X105327500Y-122326061D01*
X105327500Y-122529939D01*
X105367274Y-122729898D01*
X105445295Y-122918256D01*
X105527501Y-123041286D01*
X105527500Y-123783981D01*
X105523460Y-123825000D01*
X105527500Y-123866018D01*
X105539582Y-123988688D01*
X105587328Y-124146086D01*
X105664864Y-124291145D01*
X105769209Y-124418291D01*
X105801079Y-124444446D01*
X107680778Y-126324147D01*
X107650244Y-126336795D01*
X107480726Y-126450063D01*
X107336563Y-126594226D01*
X107223295Y-126763744D01*
X107145274Y-126952102D01*
X107105500Y-127152061D01*
X107105500Y-127355939D01*
X107145274Y-127555898D01*
X107200617Y-127689507D01*
X107195700Y-127695498D01*
X106740498Y-128150701D01*
X106711500Y-128174499D01*
X106687702Y-128203497D01*
X106687701Y-128203498D01*
X106616526Y-128290224D01*
X106545954Y-128422254D01*
X106502498Y-128565515D01*
X106487824Y-128714500D01*
X106491501Y-128751832D01*
X106491500Y-130431000D01*
X104554578Y-130431000D01*
X104429875Y-130244368D01*
X104298020Y-130112513D01*
X104370580Y-130090502D01*
X104480894Y-130031537D01*
X104577585Y-129952185D01*
X104656937Y-129855494D01*
X104715902Y-129745180D01*
X104752212Y-129625482D01*
X104764472Y-129501000D01*
X104764472Y-127801000D01*
X104752212Y-127676518D01*
X104715902Y-127556820D01*
X104656937Y-127446506D01*
X104577585Y-127349815D01*
X104480894Y-127270463D01*
X104370580Y-127211498D01*
X104250882Y-127175188D01*
X104126400Y-127162928D01*
X102426400Y-127162928D01*
X102301918Y-127175188D01*
X102182220Y-127211498D01*
X102071906Y-127270463D01*
X101975215Y-127349815D01*
X101895863Y-127446506D01*
X101836898Y-127556820D01*
X101800588Y-127676518D01*
X101788328Y-127801000D01*
X100660000Y-127801000D01*
X100660000Y-115903500D01*
X102247928Y-115903500D01*
X102247928Y-117903500D01*
X102260188Y-118027982D01*
X102296498Y-118147680D01*
X102355463Y-118257994D01*
X102434815Y-118354685D01*
X102531506Y-118434037D01*
X102641820Y-118493002D01*
X102761518Y-118529312D01*
X102886000Y-118541572D01*
X104886000Y-118541572D01*
X105010482Y-118529312D01*
X105130180Y-118493002D01*
X105240494Y-118434037D01*
X105337185Y-118354685D01*
X105416537Y-118257994D01*
X105475502Y-118147680D01*
X105511812Y-118027982D01*
X105524072Y-117903500D01*
X105524072Y-116742467D01*
X109851000Y-116742467D01*
X109851000Y-117064533D01*
X109913832Y-117380412D01*
X110037082Y-117677963D01*
X110216013Y-117945752D01*
X110443748Y-118173487D01*
X110711537Y-118352418D01*
X110873001Y-118419299D01*
X110873000Y-122803789D01*
X110829063Y-122847726D01*
X110715795Y-123017244D01*
X110637774Y-123205602D01*
X110598000Y-123405561D01*
X110598000Y-123609439D01*
X110637774Y-123809398D01*
X110715795Y-123997756D01*
X110829063Y-124167274D01*
X110973226Y-124311437D01*
X111142744Y-124424705D01*
X111331102Y-124502726D01*
X111531061Y-124542500D01*
X111734939Y-124542500D01*
X111934898Y-124502726D01*
X112123256Y-124424705D01*
X112292774Y-124311437D01*
X112436937Y-124167274D01*
X112550205Y-123997756D01*
X112628226Y-123809398D01*
X112668000Y-123609439D01*
X112668000Y-123405561D01*
X112628226Y-123205602D01*
X112550205Y-123017244D01*
X112436937Y-122847726D01*
X112393000Y-122803789D01*
X112393000Y-118263860D01*
X112528252Y-118173487D01*
X112755987Y-117945752D01*
X112934918Y-117677963D01*
X113058168Y-117380412D01*
X113121000Y-117064533D01*
X113121000Y-116742467D01*
X113058168Y-116426588D01*
X112934918Y-116129037D01*
X112755987Y-115861248D01*
X112528252Y-115633513D01*
X112260463Y-115454582D01*
X111962912Y-115331332D01*
X111647033Y-115268500D01*
X111324967Y-115268500D01*
X111009088Y-115331332D01*
X110711537Y-115454582D01*
X110443748Y-115633513D01*
X110216013Y-115861248D01*
X110037082Y-116129037D01*
X109913832Y-116426588D01*
X109851000Y-116742467D01*
X105524072Y-116742467D01*
X105524072Y-115903500D01*
X105511812Y-115779018D01*
X105475502Y-115659320D01*
X105416537Y-115549006D01*
X105337185Y-115452315D01*
X105240494Y-115372963D01*
X105130180Y-115313998D01*
X105010482Y-115277688D01*
X104886000Y-115265428D01*
X102886000Y-115265428D01*
X102761518Y-115277688D01*
X102641820Y-115313998D01*
X102531506Y-115372963D01*
X102434815Y-115452315D01*
X102355463Y-115549006D01*
X102296498Y-115659320D01*
X102260188Y-115779018D01*
X102247928Y-115903500D01*
X100660000Y-115903500D01*
X100660000Y-106387561D01*
X113011000Y-106387561D01*
X113011000Y-106591439D01*
X113050774Y-106791398D01*
X113128795Y-106979756D01*
X113242063Y-107149274D01*
X113386226Y-107293437D01*
X113555744Y-107406705D01*
X113744102Y-107484726D01*
X113944061Y-107524500D01*
X114147939Y-107524500D01*
X114347898Y-107484726D01*
X114536256Y-107406705D01*
X114705774Y-107293437D01*
X114749711Y-107249500D01*
X116326789Y-107249500D01*
X116370726Y-107293437D01*
X116540244Y-107406705D01*
X116728602Y-107484726D01*
X116928561Y-107524500D01*
X117132439Y-107524500D01*
X117332398Y-107484726D01*
X117520756Y-107406705D01*
X117690274Y-107293437D01*
X117834437Y-107149274D01*
X117947705Y-106979756D01*
X118025726Y-106791398D01*
X118065500Y-106591439D01*
X118065500Y-106387561D01*
X118025726Y-106187602D01*
X117947705Y-105999244D01*
X117834437Y-105829726D01*
X117690274Y-105685563D01*
X117520756Y-105572295D01*
X117332398Y-105494274D01*
X117238517Y-105475600D01*
X122990928Y-105475600D01*
X122990928Y-107475600D01*
X123003188Y-107600082D01*
X123039498Y-107719780D01*
X123098463Y-107830094D01*
X123177815Y-107926785D01*
X123274506Y-108006137D01*
X123384820Y-108065102D01*
X123504518Y-108101412D01*
X123629000Y-108113672D01*
X126829000Y-108113672D01*
X126953482Y-108101412D01*
X127073180Y-108065102D01*
X127183494Y-108006137D01*
X127280185Y-107926785D01*
X127359537Y-107830094D01*
X127418502Y-107719780D01*
X127454812Y-107600082D01*
X127467072Y-107475600D01*
X127467072Y-105475600D01*
X127454812Y-105351118D01*
X127418502Y-105231420D01*
X127359537Y-105121106D01*
X127280185Y-105024415D01*
X127183494Y-104945063D01*
X127073180Y-104886098D01*
X126953482Y-104849788D01*
X126829000Y-104837528D01*
X123629000Y-104837528D01*
X123504518Y-104849788D01*
X123384820Y-104886098D01*
X123274506Y-104945063D01*
X123177815Y-105024415D01*
X123098463Y-105121106D01*
X123039498Y-105231420D01*
X123003188Y-105351118D01*
X122990928Y-105475600D01*
X117238517Y-105475600D01*
X117132439Y-105454500D01*
X116928561Y-105454500D01*
X116728602Y-105494274D01*
X116540244Y-105572295D01*
X116370726Y-105685563D01*
X116326789Y-105729500D01*
X114749711Y-105729500D01*
X114705774Y-105685563D01*
X114536256Y-105572295D01*
X114347898Y-105494274D01*
X114147939Y-105454500D01*
X113944061Y-105454500D01*
X113744102Y-105494274D01*
X113555744Y-105572295D01*
X113386226Y-105685563D01*
X113242063Y-105829726D01*
X113128795Y-105999244D01*
X113050774Y-106187602D01*
X113011000Y-106387561D01*
X100660000Y-106387561D01*
X100660000Y-101532277D01*
X100679102Y-101337460D01*
X100726308Y-101181106D01*
X100802982Y-101036904D01*
X100906207Y-100910337D01*
X101032051Y-100806231D01*
X101175711Y-100728553D01*
X101331729Y-100680258D01*
X101524473Y-100660000D01*
X110947253Y-100660000D01*
X110919188Y-100752518D01*
G37*
X110919188Y-100752518D02*
X110906928Y-100877000D01*
X110906928Y-102577000D01*
X110919188Y-102701482D01*
X110955498Y-102821180D01*
X111014463Y-102931494D01*
X111093815Y-103028185D01*
X111190506Y-103107537D01*
X111300820Y-103166502D01*
X111420518Y-103202812D01*
X111545000Y-103215072D01*
X113245000Y-103215072D01*
X113369482Y-103202812D01*
X113489180Y-103166502D01*
X113599494Y-103107537D01*
X113696185Y-103028185D01*
X113775537Y-102931494D01*
X113834502Y-102821180D01*
X113858966Y-102740534D01*
X113934731Y-102824588D01*
X114168080Y-102998641D01*
X114430901Y-103123825D01*
X114578110Y-103168476D01*
X114808000Y-103047155D01*
X114808000Y-101854000D01*
X114788000Y-101854000D01*
X114788000Y-101600000D01*
X114808000Y-101600000D01*
X114808000Y-101580000D01*
X115062000Y-101580000D01*
X115062000Y-101600000D01*
X115082000Y-101600000D01*
X115082000Y-101854000D01*
X115062000Y-101854000D01*
X115062000Y-103047155D01*
X115291890Y-103168476D01*
X115439099Y-103123825D01*
X115701920Y-102998641D01*
X115935269Y-102824588D01*
X116130178Y-102608355D01*
X116199805Y-102491466D01*
X116321525Y-102673632D01*
X116528368Y-102880475D01*
X116771589Y-103042990D01*
X117041842Y-103154932D01*
X117328740Y-103212000D01*
X117621260Y-103212000D01*
X117908158Y-103154932D01*
X118178411Y-103042990D01*
X118421632Y-102880475D01*
X118628475Y-102673632D01*
X118745000Y-102499240D01*
X118861525Y-102673632D01*
X119068368Y-102880475D01*
X119311589Y-103042990D01*
X119581842Y-103154932D01*
X119868740Y-103212000D01*
X120161260Y-103212000D01*
X120448158Y-103154932D01*
X120718411Y-103042990D01*
X120961632Y-102880475D01*
X121168475Y-102673632D01*
X121285000Y-102499240D01*
X121401525Y-102673632D01*
X121608368Y-102880475D01*
X121851589Y-103042990D01*
X122121842Y-103154932D01*
X122408740Y-103212000D01*
X122701260Y-103212000D01*
X122988158Y-103154932D01*
X123258411Y-103042990D01*
X123501632Y-102880475D01*
X123708475Y-102673632D01*
X123805036Y-102529117D01*
X129965000Y-102529117D01*
X129965000Y-102870883D01*
X130031675Y-103206081D01*
X130162463Y-103521831D01*
X130352337Y-103805998D01*
X130594002Y-104047663D01*
X130878169Y-104237537D01*
X131193919Y-104368325D01*
X131529117Y-104435000D01*
X131870883Y-104435000D01*
X132206081Y-104368325D01*
X132521831Y-104237537D01*
X132805998Y-104047663D01*
X133047663Y-103805998D01*
X133237537Y-103521831D01*
X133368325Y-103206081D01*
X133435000Y-102870883D01*
X133435000Y-102529117D01*
X133368325Y-102193919D01*
X133237537Y-101878169D01*
X133047663Y-101594002D01*
X132805998Y-101352337D01*
X132521831Y-101162463D01*
X132206081Y-101031675D01*
X131870883Y-100965000D01*
X131529117Y-100965000D01*
X131193919Y-101031675D01*
X130878169Y-101162463D01*
X130594002Y-101352337D01*
X130352337Y-101594002D01*
X130162463Y-101878169D01*
X130031675Y-102193919D01*
X129965000Y-102529117D01*
X123805036Y-102529117D01*
X123870990Y-102430411D01*
X123982932Y-102160158D01*
X124040000Y-101873260D01*
X124040000Y-101580740D01*
X123982932Y-101293842D01*
X123870990Y-101023589D01*
X123708475Y-100780368D01*
X123588107Y-100660000D01*
X133467723Y-100660000D01*
X133662540Y-100679102D01*
X133818894Y-100726308D01*
X133963096Y-100802982D01*
X134089663Y-100906207D01*
X134193769Y-101032051D01*
X134271447Y-101175711D01*
X134319742Y-101331729D01*
X134340000Y-101524473D01*
X134340001Y-148467712D01*
X134320898Y-148662540D01*
X134273692Y-148818895D01*
X134197018Y-148963096D01*
X134093792Y-149089664D01*
X133967951Y-149193768D01*
X133824289Y-149271447D01*
X133668271Y-149319742D01*
X133475527Y-149340000D01*
X101532277Y-149340000D01*
X101337460Y-149320898D01*
X101181105Y-149273692D01*
X101036904Y-149197018D01*
X100910336Y-149093792D01*
X100806232Y-148967951D01*
X100728553Y-148824289D01*
X100680258Y-148668271D01*
X100660000Y-148475527D01*
X100660000Y-127801000D01*
X101788328Y-127801000D01*
X101788328Y-129501000D01*
X101800588Y-129625482D01*
X101836898Y-129745180D01*
X101895863Y-129855494D01*
X101975215Y-129952185D01*
X102071906Y-130031537D01*
X102182220Y-130090502D01*
X102254780Y-130112513D01*
X102122925Y-130244368D01*
X101960410Y-130487589D01*
X101848468Y-130757842D01*
X101791400Y-131044740D01*
X101791400Y-131337260D01*
X101848468Y-131624158D01*
X101960410Y-131894411D01*
X102122925Y-132137632D01*
X102329768Y-132344475D01*
X102504160Y-132461000D01*
X102329768Y-132577525D01*
X102122925Y-132784368D01*
X101960410Y-133027589D01*
X101848468Y-133297842D01*
X101791400Y-133584740D01*
X101791400Y-133877260D01*
X101848468Y-134164158D01*
X101960410Y-134434411D01*
X102122925Y-134677632D01*
X102329768Y-134884475D01*
X102504160Y-135001000D01*
X102329768Y-135117525D01*
X102122925Y-135324368D01*
X101960410Y-135567589D01*
X101848468Y-135837842D01*
X101791400Y-136124740D01*
X101791400Y-136417260D01*
X101848468Y-136704158D01*
X101960410Y-136974411D01*
X102122925Y-137217632D01*
X102329768Y-137424475D01*
X102504160Y-137541000D01*
X102329768Y-137657525D01*
X102122925Y-137864368D01*
X101960410Y-138107589D01*
X101848468Y-138377842D01*
X101791400Y-138664740D01*
X101791400Y-138957260D01*
X101848468Y-139244158D01*
X101960410Y-139514411D01*
X102122925Y-139757632D01*
X102329768Y-139964475D01*
X102504160Y-140081000D01*
X102329768Y-140197525D01*
X102122925Y-140404368D01*
X101960410Y-140647589D01*
X101848468Y-140917842D01*
X101791400Y-141204740D01*
X101791400Y-141497260D01*
X101848468Y-141784158D01*
X101960410Y-142054411D01*
X102122925Y-142297632D01*
X102329768Y-142504475D01*
X102504160Y-142621000D01*
X102329768Y-142737525D01*
X102122925Y-142944368D01*
X101960410Y-143187589D01*
X101848468Y-143457842D01*
X101791400Y-143744740D01*
X101791400Y-144037260D01*
X101848468Y-144324158D01*
X101960410Y-144594411D01*
X102122925Y-144837632D01*
X102329768Y-145044475D01*
X102504160Y-145161000D01*
X102329768Y-145277525D01*
X102122925Y-145484368D01*
X101960410Y-145727589D01*
X101848468Y-145997842D01*
X101791400Y-146284740D01*
X101791400Y-146577260D01*
X101848468Y-146864158D01*
X101960410Y-147134411D01*
X102122925Y-147377632D01*
X102329768Y-147584475D01*
X102572989Y-147746990D01*
X102843242Y-147858932D01*
X103130140Y-147916000D01*
X103422660Y-147916000D01*
X103709558Y-147858932D01*
X103979811Y-147746990D01*
X104223032Y-147584475D01*
X104429875Y-147377632D01*
X104592390Y-147134411D01*
X104704332Y-146864158D01*
X104761400Y-146577260D01*
X104761400Y-146429117D01*
X106265000Y-146429117D01*
X106265000Y-146770883D01*
X106331675Y-147106081D01*
X106462463Y-147421831D01*
X106652337Y-147705998D01*
X106894002Y-147947663D01*
X107178169Y-148137537D01*
X107493919Y-148268325D01*
X107829117Y-148335000D01*
X108170883Y-148335000D01*
X108506081Y-148268325D01*
X108821831Y-148137537D01*
X109105998Y-147947663D01*
X109347663Y-147705998D01*
X109537537Y-147421831D01*
X109668325Y-147106081D01*
X109735000Y-146770883D01*
X109735000Y-146429117D01*
X109668325Y-146093919D01*
X109537537Y-145778169D01*
X109405794Y-145581000D01*
X112711928Y-145581000D01*
X112711928Y-147281000D01*
X112724188Y-147405482D01*
X112760498Y-147525180D01*
X112819463Y-147635494D01*
X112898815Y-147732185D01*
X112995506Y-147811537D01*
X113105820Y-147870502D01*
X113225518Y-147906812D01*
X113350000Y-147919072D01*
X115050000Y-147919072D01*
X115174482Y-147906812D01*
X115294180Y-147870502D01*
X115404494Y-147811537D01*
X115501185Y-147732185D01*
X115580537Y-147635494D01*
X115639502Y-147525180D01*
X115663966Y-147444534D01*
X115739731Y-147528588D01*
X115973080Y-147702641D01*
X116235901Y-147827825D01*
X116383110Y-147872476D01*
X116613000Y-147751155D01*
X116613000Y-146558000D01*
X116593000Y-146558000D01*
X116593000Y-146304000D01*
X116613000Y-146304000D01*
X116613000Y-145110845D01*
X116383110Y-144989524D01*
X116235901Y-145034175D01*
X115973080Y-145159359D01*
X115739731Y-145333412D01*
X115663966Y-145417466D01*
X115639502Y-145336820D01*
X115580537Y-145226506D01*
X115501185Y-145129815D01*
X115404494Y-145050463D01*
X115294180Y-144991498D01*
X115174482Y-144955188D01*
X115050000Y-144942928D01*
X113350000Y-144942928D01*
X113225518Y-144955188D01*
X113105820Y-144991498D01*
X112995506Y-145050463D01*
X112898815Y-145129815D01*
X112819463Y-145226506D01*
X112760498Y-145336820D01*
X112724188Y-145456518D01*
X112711928Y-145581000D01*
X109405794Y-145581000D01*
X109347663Y-145494002D01*
X109105998Y-145252337D01*
X108821831Y-145062463D01*
X108506081Y-144931675D01*
X108170883Y-144865000D01*
X107829117Y-144865000D01*
X107493919Y-144931675D01*
X107178169Y-145062463D01*
X106894002Y-145252337D01*
X106652337Y-145494002D01*
X106462463Y-145778169D01*
X106331675Y-146093919D01*
X106265000Y-146429117D01*
X104761400Y-146429117D01*
X104761400Y-146284740D01*
X104704332Y-145997842D01*
X104592390Y-145727589D01*
X104429875Y-145484368D01*
X104223032Y-145277525D01*
X104048640Y-145161000D01*
X104223032Y-145044475D01*
X104429875Y-144837632D01*
X104592390Y-144594411D01*
X104704332Y-144324158D01*
X104761400Y-144037260D01*
X104761400Y-143744740D01*
X104704332Y-143457842D01*
X104592390Y-143187589D01*
X104429875Y-142944368D01*
X104223032Y-142737525D01*
X104048640Y-142621000D01*
X104223032Y-142504475D01*
X104429875Y-142297632D01*
X104592390Y-142054411D01*
X104704332Y-141784158D01*
X104761400Y-141497260D01*
X104761400Y-141204740D01*
X104704332Y-140917842D01*
X104592390Y-140647589D01*
X104429875Y-140404368D01*
X104223032Y-140197525D01*
X104048640Y-140081000D01*
X104223032Y-139964475D01*
X104429875Y-139757632D01*
X104592390Y-139514411D01*
X104704332Y-139244158D01*
X104761400Y-138957260D01*
X104761400Y-138664740D01*
X104717610Y-138444592D01*
X105413004Y-137749198D01*
X105442001Y-137725401D01*
X105536974Y-137609676D01*
X105607546Y-137477647D01*
X105651003Y-137334386D01*
X105662000Y-137222733D01*
X105662000Y-137222732D01*
X105665677Y-137185400D01*
X105662000Y-137148067D01*
X105662000Y-134479101D01*
X105666777Y-134430600D01*
X105662000Y-134382099D01*
X105662000Y-133156801D01*
X105967782Y-132851020D01*
X107643114Y-132851020D01*
X107680436Y-132854696D01*
X107717758Y-132851020D01*
X107717769Y-132851020D01*
X107829422Y-132840023D01*
X107972683Y-132796566D01*
X108104712Y-132725994D01*
X108220437Y-132631021D01*
X108235636Y-132612501D01*
X108457677Y-132612501D01*
X108494999Y-132616177D01*
X108532321Y-132612501D01*
X108532332Y-132612501D01*
X108643985Y-132601504D01*
X108787246Y-132558047D01*
X108919275Y-132487475D01*
X109035000Y-132392502D01*
X109058802Y-132363499D01*
X109598302Y-131824000D01*
X118295289Y-131824000D01*
X118339226Y-131867937D01*
X118508744Y-131981205D01*
X118697102Y-132059226D01*
X118897061Y-132099000D01*
X119100939Y-132099000D01*
X119300898Y-132059226D01*
X119489256Y-131981205D01*
X119658774Y-131867937D01*
X119702711Y-131824000D01*
X121444676Y-131824000D01*
X121481998Y-131827676D01*
X121519320Y-131824000D01*
X121519331Y-131824000D01*
X121630984Y-131813003D01*
X121774245Y-131769546D01*
X121871728Y-131717439D01*
X121958726Y-131804437D01*
X122128244Y-131917705D01*
X122316602Y-131995726D01*
X122516561Y-132035500D01*
X122720439Y-132035500D01*
X122920398Y-131995726D01*
X123108756Y-131917705D01*
X123278274Y-131804437D01*
X123322211Y-131760500D01*
X123388799Y-131760500D01*
X123388800Y-137839841D01*
X123258544Y-137893795D01*
X123089026Y-138007063D01*
X122944863Y-138151226D01*
X122831595Y-138320744D01*
X122753574Y-138509102D01*
X122713800Y-138709061D01*
X122713800Y-138912939D01*
X122719183Y-138940000D01*
X122325501Y-138940000D01*
X122325501Y-138853210D01*
X122342937Y-138835774D01*
X122456205Y-138666256D01*
X122534226Y-138477898D01*
X122574000Y-138277939D01*
X122574000Y-138074061D01*
X122534226Y-137874102D01*
X122456205Y-137685744D01*
X122342937Y-137516226D01*
X122198774Y-137372063D01*
X122029256Y-137258795D01*
X121840898Y-137180774D01*
X121640939Y-137141000D01*
X121437061Y-137141000D01*
X121237102Y-137180774D01*
X121048744Y-137258795D01*
X120879226Y-137372063D01*
X120735063Y-137516226D01*
X120621795Y-137685744D01*
X120543774Y-137874102D01*
X120504000Y-138074061D01*
X120504000Y-138274607D01*
X120350244Y-138338295D01*
X120180726Y-138451563D01*
X120036563Y-138595726D01*
X119923295Y-138765244D01*
X119845274Y-138953602D01*
X119805500Y-139153561D01*
X119805500Y-139357439D01*
X119845274Y-139557398D01*
X119923295Y-139745756D01*
X120036563Y-139915274D01*
X120093200Y-139971911D01*
X120093201Y-144083500D01*
X119480825Y-144083500D01*
X119443500Y-144079824D01*
X119406175Y-144083500D01*
X119406167Y-144083500D01*
X119294514Y-144094497D01*
X119151253Y-144137954D01*
X119019224Y-144208526D01*
X118903499Y-144303499D01*
X118879696Y-144332503D01*
X118742003Y-144470196D01*
X118712999Y-144493999D01*
X118641154Y-144581543D01*
X118618026Y-144609724D01*
X118547454Y-144741754D01*
X118503998Y-144885015D01*
X118489324Y-145034000D01*
X118502199Y-145164716D01*
X118333368Y-145277525D01*
X118126525Y-145484368D01*
X118004805Y-145666534D01*
X117935178Y-145549645D01*
X117740269Y-145333412D01*
X117506920Y-145159359D01*
X117244099Y-145034175D01*
X117096890Y-144989524D01*
X116867000Y-145110845D01*
X116867000Y-146304000D01*
X116887000Y-146304000D01*
X116887000Y-146558000D01*
X116867000Y-146558000D01*
X116867000Y-147751155D01*
X117096890Y-147872476D01*
X117244099Y-147827825D01*
X117506920Y-147702641D01*
X117740269Y-147528588D01*
X117935178Y-147312355D01*
X118004805Y-147195466D01*
X118126525Y-147377632D01*
X118333368Y-147584475D01*
X118576589Y-147746990D01*
X118846842Y-147858932D01*
X119133740Y-147916000D01*
X119426260Y-147916000D01*
X119713158Y-147858932D01*
X119983411Y-147746990D01*
X120226632Y-147584475D01*
X120433475Y-147377632D01*
X120550000Y-147203240D01*
X120666525Y-147377632D01*
X120873368Y-147584475D01*
X121116589Y-147746990D01*
X121386842Y-147858932D01*
X121673740Y-147916000D01*
X121966260Y-147916000D01*
X122253158Y-147858932D01*
X122523411Y-147746990D01*
X122766632Y-147584475D01*
X122973475Y-147377632D01*
X123135990Y-147134411D01*
X123247932Y-146864158D01*
X123305000Y-146577260D01*
X123305000Y-146284740D01*
X124651400Y-146284740D01*
X124651400Y-146577260D01*
X124708468Y-146864158D01*
X124820410Y-147134411D01*
X124982925Y-147377632D01*
X125189768Y-147584475D01*
X125432989Y-147746990D01*
X125703242Y-147858932D01*
X125990140Y-147916000D01*
X126282660Y-147916000D01*
X126569558Y-147858932D01*
X126839811Y-147746990D01*
X127083032Y-147584475D01*
X127289875Y-147377632D01*
X127452390Y-147134411D01*
X127564332Y-146864158D01*
X127621400Y-146577260D01*
X127621400Y-146429117D01*
X129965000Y-146429117D01*
X129965000Y-146770883D01*
X130031675Y-147106081D01*
X130162463Y-147421831D01*
X130352337Y-147705998D01*
X130594002Y-147947663D01*
X130878169Y-148137537D01*
X131193919Y-148268325D01*
X131529117Y-148335000D01*
X131870883Y-148335000D01*
X132206081Y-148268325D01*
X132521831Y-148137537D01*
X132805998Y-147947663D01*
X133047663Y-147705998D01*
X133237537Y-147421831D01*
X133368325Y-147106081D01*
X133435000Y-146770883D01*
X133435000Y-146429117D01*
X133368325Y-146093919D01*
X133237537Y-145778169D01*
X133047663Y-145494002D01*
X132805998Y-145252337D01*
X132521831Y-145062463D01*
X132206081Y-144931675D01*
X131870883Y-144865000D01*
X131529117Y-144865000D01*
X131193919Y-144931675D01*
X130878169Y-145062463D01*
X130594002Y-145252337D01*
X130352337Y-145494002D01*
X130162463Y-145778169D01*
X130031675Y-146093919D01*
X129965000Y-146429117D01*
X127621400Y-146429117D01*
X127621400Y-146284740D01*
X127564332Y-145997842D01*
X127452390Y-145727589D01*
X127289875Y-145484368D01*
X127083032Y-145277525D01*
X126900866Y-145155805D01*
X127017755Y-145086178D01*
X127233988Y-144891269D01*
X127408041Y-144657920D01*
X127533225Y-144395099D01*
X127577876Y-144247890D01*
X127456555Y-144018000D01*
X126263400Y-144018000D01*
X126263400Y-144038000D01*
X126009400Y-144038000D01*
X126009400Y-144018000D01*
X124816245Y-144018000D01*
X124694924Y-144247890D01*
X124739575Y-144395099D01*
X124864759Y-144657920D01*
X125038812Y-144891269D01*
X125255045Y-145086178D01*
X125371934Y-145155805D01*
X125189768Y-145277525D01*
X124982925Y-145484368D01*
X124820410Y-145727589D01*
X124708468Y-145997842D01*
X124651400Y-146284740D01*
X123305000Y-146284740D01*
X123247932Y-145997842D01*
X123135990Y-145727589D01*
X122973475Y-145484368D01*
X122766632Y-145277525D01*
X122580000Y-145152822D01*
X122580000Y-144907825D01*
X122583676Y-144870500D01*
X122580000Y-144833175D01*
X122580000Y-144833167D01*
X122569003Y-144721514D01*
X122525546Y-144578253D01*
X122454974Y-144446224D01*
X122360001Y-144330499D01*
X122345171Y-144318329D01*
X122333001Y-144303499D01*
X122217276Y-144208526D01*
X122085247Y-144137954D01*
X122063210Y-144131269D01*
X122063210Y-140460000D01*
X124531890Y-140460000D01*
X124569212Y-140463676D01*
X124606534Y-140460000D01*
X124606545Y-140460000D01*
X124718198Y-140449003D01*
X124861459Y-140405546D01*
X124993488Y-140334974D01*
X125109213Y-140240001D01*
X125133016Y-140210997D01*
X125303527Y-140040486D01*
X125364160Y-140081000D01*
X125189768Y-140197525D01*
X124982925Y-140404368D01*
X124820410Y-140647589D01*
X124708468Y-140917842D01*
X124651400Y-141204740D01*
X124651400Y-141497260D01*
X124708468Y-141784158D01*
X124820410Y-142054411D01*
X124982925Y-142297632D01*
X125189768Y-142504475D01*
X125371934Y-142626195D01*
X125255045Y-142695822D01*
X125038812Y-142890731D01*
X124864759Y-143124080D01*
X124739575Y-143386901D01*
X124694924Y-143534110D01*
X124816245Y-143764000D01*
X126009400Y-143764000D01*
X126009400Y-143744000D01*
X126263400Y-143744000D01*
X126263400Y-143764000D01*
X127456555Y-143764000D01*
X127577876Y-143534110D01*
X127533225Y-143386901D01*
X127408041Y-143124080D01*
X127233988Y-142890731D01*
X127017755Y-142695822D01*
X126900866Y-142626195D01*
X127083032Y-142504475D01*
X127289875Y-142297632D01*
X127452390Y-142054411D01*
X127564332Y-141784158D01*
X127621400Y-141497260D01*
X127621400Y-141204740D01*
X127564332Y-140917842D01*
X127452390Y-140647589D01*
X127289875Y-140404368D01*
X127083032Y-140197525D01*
X126908640Y-140081000D01*
X127083032Y-139964475D01*
X127289875Y-139757632D01*
X127452390Y-139514411D01*
X127564332Y-139244158D01*
X127579502Y-139167890D01*
X128733524Y-139167890D01*
X128778175Y-139315099D01*
X128903359Y-139577920D01*
X129077412Y-139811269D01*
X129293645Y-140006178D01*
X129543748Y-140155157D01*
X129818109Y-140252481D01*
X130048000Y-140131814D01*
X130048000Y-138938000D01*
X130302000Y-138938000D01*
X130302000Y-140131814D01*
X130531891Y-140252481D01*
X130806252Y-140155157D01*
X131056355Y-140006178D01*
X131272588Y-139811269D01*
X131446641Y-139577920D01*
X131571825Y-139315099D01*
X131616476Y-139167890D01*
X131495155Y-138938000D01*
X130302000Y-138938000D01*
X130048000Y-138938000D01*
X128854845Y-138938000D01*
X128733524Y-139167890D01*
X127579502Y-139167890D01*
X127621400Y-138957260D01*
X127621400Y-138664740D01*
X127564332Y-138377842D01*
X127452390Y-138107589D01*
X127289875Y-137864368D01*
X127083032Y-137657525D01*
X126908640Y-137541000D01*
X127083032Y-137424475D01*
X127289875Y-137217632D01*
X127452390Y-136974411D01*
X127564332Y-136704158D01*
X127621400Y-136417260D01*
X127621400Y-136124740D01*
X127564332Y-135837842D01*
X127452390Y-135567589D01*
X127289875Y-135324368D01*
X127083032Y-135117525D01*
X126908640Y-135001000D01*
X127083032Y-134884475D01*
X127289875Y-134677632D01*
X127452390Y-134434411D01*
X127564332Y-134164158D01*
X127621400Y-133877260D01*
X127621400Y-133584740D01*
X127564332Y-133297842D01*
X127452390Y-133027589D01*
X127289875Y-132784368D01*
X127083032Y-132577525D01*
X126908640Y-132461000D01*
X127083032Y-132344475D01*
X127289875Y-132137632D01*
X127452390Y-131894411D01*
X127564332Y-131624158D01*
X127621400Y-131337260D01*
X127621400Y-131044740D01*
X127564332Y-130757842D01*
X127532503Y-130681000D01*
X127767678Y-130681000D01*
X127805000Y-130684676D01*
X127842322Y-130681000D01*
X127842333Y-130681000D01*
X127953986Y-130670003D01*
X128097247Y-130626546D01*
X128229276Y-130555974D01*
X128345001Y-130461001D01*
X128368804Y-130431997D01*
X128862457Y-129938345D01*
X128873815Y-129952185D01*
X128970506Y-130031537D01*
X129080820Y-130090502D01*
X129153380Y-130112513D01*
X129021525Y-130244368D01*
X128859010Y-130487589D01*
X128747068Y-130757842D01*
X128690000Y-131044740D01*
X128690000Y-131337260D01*
X128747068Y-131624158D01*
X128859010Y-131894411D01*
X129021525Y-132137632D01*
X129228368Y-132344475D01*
X129402760Y-132461000D01*
X129228368Y-132577525D01*
X129021525Y-132784368D01*
X128859010Y-133027589D01*
X128747068Y-133297842D01*
X128690000Y-133584740D01*
X128690000Y-133877260D01*
X128747068Y-134164158D01*
X128859010Y-134434411D01*
X129021525Y-134677632D01*
X129228368Y-134884475D01*
X129402760Y-135001000D01*
X129228368Y-135117525D01*
X129021525Y-135324368D01*
X128859010Y-135567589D01*
X128747068Y-135837842D01*
X128690000Y-136124740D01*
X128690000Y-136417260D01*
X128747068Y-136704158D01*
X128859010Y-136974411D01*
X129021525Y-137217632D01*
X129228368Y-137424475D01*
X129410534Y-137546195D01*
X129293645Y-137615822D01*
X129077412Y-137810731D01*
X128903359Y-138044080D01*
X128778175Y-138306901D01*
X128733524Y-138454110D01*
X128854845Y-138684000D01*
X130048000Y-138684000D01*
X130048000Y-138664000D01*
X130302000Y-138664000D01*
X130302000Y-138684000D01*
X131495155Y-138684000D01*
X131616476Y-138454110D01*
X131571825Y-138306901D01*
X131446641Y-138044080D01*
X131272588Y-137810731D01*
X131056355Y-137615822D01*
X130939466Y-137546195D01*
X131121632Y-137424475D01*
X131328475Y-137217632D01*
X131490990Y-136974411D01*
X131602932Y-136704158D01*
X131660000Y-136417260D01*
X131660000Y-136124740D01*
X131602932Y-135837842D01*
X131490990Y-135567589D01*
X131328475Y-135324368D01*
X131121632Y-135117525D01*
X130947240Y-135001000D01*
X131121632Y-134884475D01*
X131328475Y-134677632D01*
X131490990Y-134434411D01*
X131602932Y-134164158D01*
X131660000Y-133877260D01*
X131660000Y-133584740D01*
X131602932Y-133297842D01*
X131490990Y-133027589D01*
X131328475Y-132784368D01*
X131121632Y-132577525D01*
X130947240Y-132461000D01*
X131121632Y-132344475D01*
X131328475Y-132137632D01*
X131460071Y-131940684D01*
X131466986Y-131940003D01*
X131610247Y-131896546D01*
X131742276Y-131825974D01*
X131858001Y-131731001D01*
X131881804Y-131701997D01*
X132146497Y-131437304D01*
X132175501Y-131413501D01*
X132270474Y-131297776D01*
X132341046Y-131165747D01*
X132384503Y-131022486D01*
X132395500Y-130910833D01*
X132395500Y-130910823D01*
X132399176Y-130873500D01*
X132395500Y-130836177D01*
X132395500Y-127735822D01*
X132399176Y-127698499D01*
X132395500Y-127661176D01*
X132395500Y-127661167D01*
X132384503Y-127549514D01*
X132341046Y-127406253D01*
X132270474Y-127274224D01*
X132175501Y-127158499D01*
X132146503Y-127134702D01*
X131691303Y-126679502D01*
X131667501Y-126650499D01*
X131551776Y-126555526D01*
X131419747Y-126484954D01*
X131276486Y-126441497D01*
X131164833Y-126430500D01*
X131164822Y-126430500D01*
X131127500Y-126426824D01*
X131090178Y-126430500D01*
X124839713Y-126430500D01*
X124003698Y-125594487D01*
X123979902Y-125565491D01*
X123948232Y-125539500D01*
X123864177Y-125470517D01*
X123732147Y-125399945D01*
X123632343Y-125369671D01*
X123588887Y-125356489D01*
X123477234Y-125345492D01*
X123439901Y-125341815D01*
X123402569Y-125345492D01*
X120399510Y-125345490D01*
X120399510Y-117758756D01*
X121161003Y-116997264D01*
X121190001Y-116973466D01*
X121284974Y-116857741D01*
X121355546Y-116725712D01*
X121370747Y-116675600D01*
X122990928Y-116675600D01*
X122990928Y-118675600D01*
X123003188Y-118800082D01*
X123039498Y-118919780D01*
X123098463Y-119030094D01*
X123177815Y-119126785D01*
X123274506Y-119206137D01*
X123384820Y-119265102D01*
X123504518Y-119301412D01*
X123629000Y-119313672D01*
X126829000Y-119313672D01*
X126953482Y-119301412D01*
X127073180Y-119265102D01*
X127183494Y-119206137D01*
X127280185Y-119126785D01*
X127359537Y-119030094D01*
X127418502Y-118919780D01*
X127454812Y-118800082D01*
X127467072Y-118675600D01*
X127467072Y-116675600D01*
X127454812Y-116551118D01*
X127418502Y-116431420D01*
X127359537Y-116321106D01*
X127280185Y-116224415D01*
X127183494Y-116145063D01*
X127073180Y-116086098D01*
X126953482Y-116049788D01*
X126829000Y-116037528D01*
X123629000Y-116037528D01*
X123504518Y-116049788D01*
X123384820Y-116086098D01*
X123274506Y-116145063D01*
X123177815Y-116224415D01*
X123098463Y-116321106D01*
X123039498Y-116431420D01*
X123003188Y-116551118D01*
X122990928Y-116675600D01*
X121370747Y-116675600D01*
X121399003Y-116582451D01*
X121410000Y-116470798D01*
X121410000Y-116470789D01*
X121413676Y-116433466D01*
X121410410Y-116400301D01*
X121453937Y-116356774D01*
X121567205Y-116187256D01*
X121645226Y-115998898D01*
X121685000Y-115798939D01*
X121685000Y-115595061D01*
X121645226Y-115395102D01*
X121567205Y-115206744D01*
X121453937Y-115037226D01*
X121309774Y-114893063D01*
X121140256Y-114779795D01*
X120951898Y-114701774D01*
X120751939Y-114662000D01*
X120548061Y-114662000D01*
X120348102Y-114701774D01*
X120267000Y-114735368D01*
X120267000Y-114414567D01*
X130594000Y-114414567D01*
X130594000Y-114736633D01*
X130656832Y-115052512D01*
X130780082Y-115350063D01*
X130959013Y-115617852D01*
X131186748Y-115845587D01*
X131454537Y-116024518D01*
X131752088Y-116147768D01*
X132067967Y-116210600D01*
X132390033Y-116210600D01*
X132705912Y-116147768D01*
X133003463Y-116024518D01*
X133271252Y-115845587D01*
X133498987Y-115617852D01*
X133677918Y-115350063D01*
X133801168Y-115052512D01*
X133864000Y-114736633D01*
X133864000Y-114414567D01*
X133801168Y-114098688D01*
X133677918Y-113801137D01*
X133498987Y-113533348D01*
X133271252Y-113305613D01*
X133003463Y-113126682D01*
X132705912Y-113003432D01*
X132390033Y-112940600D01*
X132067967Y-112940600D01*
X131752088Y-113003432D01*
X131454537Y-113126682D01*
X131186748Y-113305613D01*
X130959013Y-113533348D01*
X130780082Y-113801137D01*
X130656832Y-114098688D01*
X130594000Y-114414567D01*
X120267000Y-114414567D01*
X120267000Y-110711013D01*
X131273192Y-110711013D01*
X131368956Y-110975414D01*
X131658571Y-111116304D01*
X131970108Y-111197984D01*
X132291595Y-111217318D01*
X132610675Y-111173561D01*
X132915088Y-111068395D01*
X133089044Y-110975414D01*
X133184808Y-110711013D01*
X132229000Y-109755205D01*
X131273192Y-110711013D01*
X120267000Y-110711013D01*
X120267000Y-110140925D01*
X120270676Y-110103600D01*
X120267000Y-110066275D01*
X120267000Y-110066267D01*
X120256003Y-109954614D01*
X120212546Y-109811353D01*
X120141974Y-109679324D01*
X120108221Y-109638195D01*
X130587282Y-109638195D01*
X130631039Y-109957275D01*
X130736205Y-110261688D01*
X130829186Y-110435644D01*
X131093587Y-110531408D01*
X132049395Y-109575600D01*
X132408605Y-109575600D01*
X133364413Y-110531408D01*
X133628814Y-110435644D01*
X133769704Y-110146029D01*
X133851384Y-109834492D01*
X133870718Y-109513005D01*
X133826961Y-109193925D01*
X133721795Y-108889512D01*
X133628814Y-108715556D01*
X133364413Y-108619792D01*
X132408605Y-109575600D01*
X132049395Y-109575600D01*
X131093587Y-108619792D01*
X130829186Y-108715556D01*
X130688296Y-109005171D01*
X130606616Y-109316708D01*
X130587282Y-109638195D01*
X120108221Y-109638195D01*
X120047001Y-109563599D01*
X120018003Y-109539802D01*
X119542803Y-109064602D01*
X119519001Y-109035599D01*
X119403276Y-108940626D01*
X119367072Y-108921274D01*
X119367072Y-108575600D01*
X119354812Y-108451118D01*
X119351497Y-108440187D01*
X131273192Y-108440187D01*
X132229000Y-109395995D01*
X133184808Y-108440187D01*
X133089044Y-108175786D01*
X132799429Y-108034896D01*
X132487892Y-107953216D01*
X132166405Y-107933882D01*
X131847325Y-107977639D01*
X131542912Y-108082805D01*
X131368956Y-108175786D01*
X131273192Y-108440187D01*
X119351497Y-108440187D01*
X119318502Y-108331420D01*
X119259537Y-108221106D01*
X119180185Y-108124415D01*
X119083494Y-108045063D01*
X118973180Y-107986098D01*
X118853482Y-107949788D01*
X118729000Y-107937528D01*
X116729000Y-107937528D01*
X116604518Y-107949788D01*
X116484820Y-107986098D01*
X116374506Y-108045063D01*
X116277815Y-108124415D01*
X116198463Y-108221106D01*
X116139498Y-108331420D01*
X116103188Y-108451118D01*
X116090928Y-108575600D01*
X116090928Y-110575600D01*
X116103188Y-110700082D01*
X116139498Y-110819780D01*
X116198463Y-110930094D01*
X116277815Y-111026785D01*
X116374506Y-111106137D01*
X116478223Y-111161576D01*
X116329186Y-111215556D01*
X116188296Y-111505171D01*
X116106616Y-111816708D01*
X116087282Y-112138195D01*
X116131039Y-112457275D01*
X116236205Y-112761688D01*
X116329186Y-112935644D01*
X116593587Y-113031408D01*
X117549395Y-112075600D01*
X117535253Y-112061458D01*
X117714858Y-111881853D01*
X117729000Y-111895995D01*
X117743143Y-111881853D01*
X117922748Y-112061458D01*
X117908605Y-112075600D01*
X117922748Y-112089743D01*
X117743143Y-112269348D01*
X117729000Y-112255205D01*
X116773192Y-113211013D01*
X116783935Y-113240675D01*
X116686748Y-113305613D01*
X116459013Y-113533348D01*
X116280082Y-113801137D01*
X116156832Y-114098688D01*
X116094000Y-114414567D01*
X116094000Y-114736633D01*
X116156832Y-115052512D01*
X116280082Y-115350063D01*
X116459013Y-115617852D01*
X116686748Y-115845587D01*
X116954537Y-116024518D01*
X117252088Y-116147768D01*
X117567967Y-116210600D01*
X117890033Y-116210600D01*
X117968999Y-116194893D01*
X117969000Y-126376577D01*
X117965323Y-126413909D01*
X117979997Y-126562894D01*
X118023453Y-126706155D01*
X118094025Y-126838185D01*
X118143323Y-126898254D01*
X118188999Y-126953910D01*
X118217997Y-126977708D01*
X118403217Y-127162928D01*
X117768000Y-127162928D01*
X117643518Y-127175188D01*
X117523820Y-127211498D01*
X117413506Y-127270463D01*
X117316815Y-127349815D01*
X117237463Y-127446506D01*
X117178498Y-127556820D01*
X117142188Y-127676518D01*
X117129928Y-127801000D01*
X117129928Y-129501000D01*
X117142188Y-129625482D01*
X117178498Y-129745180D01*
X117237463Y-129855494D01*
X117316815Y-129952185D01*
X117413506Y-130031537D01*
X117523820Y-130090502D01*
X117643518Y-130126812D01*
X117768000Y-130139072D01*
X118527389Y-130139072D01*
X118508744Y-130146795D01*
X118339226Y-130260063D01*
X118295289Y-130304000D01*
X109320823Y-130304000D01*
X109283500Y-130300324D01*
X109246177Y-130304000D01*
X109246167Y-130304000D01*
X109134514Y-130314997D01*
X108991253Y-130358454D01*
X108889535Y-130412824D01*
X108800274Y-130323563D01*
X108630756Y-130210295D01*
X108442398Y-130132274D01*
X108242439Y-130092500D01*
X108038561Y-130092500D01*
X108011500Y-130097883D01*
X108011500Y-129029301D01*
X108074302Y-128966500D01*
X115342178Y-128966500D01*
X115379500Y-128970176D01*
X115416822Y-128966500D01*
X115416833Y-128966500D01*
X115528486Y-128955503D01*
X115671747Y-128912046D01*
X115803776Y-128841474D01*
X115919501Y-128746501D01*
X115943304Y-128717497D01*
X116334998Y-128325803D01*
X116364001Y-128302001D01*
X116425779Y-128226724D01*
X116458974Y-128186277D01*
X116529546Y-128054247D01*
X116540254Y-128018946D01*
X116573003Y-127910986D01*
X116584000Y-127799333D01*
X116584000Y-127799323D01*
X116587676Y-127762000D01*
X116584000Y-127724677D01*
X116584000Y-126592822D01*
X116587676Y-126555500D01*
X116584000Y-126518177D01*
X116584000Y-126518167D01*
X116573003Y-126406514D01*
X116529546Y-126263253D01*
X116477930Y-126166687D01*
X116458974Y-126131223D01*
X116387799Y-126044497D01*
X116364001Y-126015499D01*
X116335003Y-125991701D01*
X116291553Y-125948251D01*
X116518752Y-125867657D01*
X116768855Y-125718678D01*
X116985088Y-125523769D01*
X117159141Y-125290420D01*
X117284325Y-125027599D01*
X117328976Y-124880390D01*
X117207655Y-124650500D01*
X116014500Y-124650500D01*
X116014500Y-124670500D01*
X115760500Y-124670500D01*
X115760500Y-124650500D01*
X115740500Y-124650500D01*
X115740500Y-124396500D01*
X115760500Y-124396500D01*
X115760500Y-124376500D01*
X116014500Y-124376500D01*
X116014500Y-124396500D01*
X117207655Y-124396500D01*
X117328976Y-124166610D01*
X117284325Y-124019401D01*
X117159141Y-123756580D01*
X116985088Y-123523231D01*
X116901034Y-123447466D01*
X116981680Y-123423002D01*
X117091994Y-123364037D01*
X117188685Y-123284685D01*
X117268037Y-123187994D01*
X117327002Y-123077680D01*
X117363312Y-122957982D01*
X117375572Y-122833500D01*
X117375572Y-121133500D01*
X117363312Y-121009018D01*
X117327002Y-120889320D01*
X117268037Y-120779006D01*
X117188685Y-120682315D01*
X117091994Y-120602963D01*
X116981680Y-120543998D01*
X116861982Y-120507688D01*
X116737500Y-120495428D01*
X115037500Y-120495428D01*
X114913018Y-120507688D01*
X114793320Y-120543998D01*
X114683006Y-120602963D01*
X114586315Y-120682315D01*
X114506963Y-120779006D01*
X114447998Y-120889320D01*
X114411688Y-121009018D01*
X114399428Y-121133500D01*
X114399428Y-121306190D01*
X114320223Y-121348526D01*
X114266032Y-121393000D01*
X114204499Y-121443499D01*
X114180700Y-121472498D01*
X113661998Y-121991201D01*
X113633000Y-122014999D01*
X113609202Y-122043997D01*
X113609201Y-122043998D01*
X113538026Y-122130724D01*
X113467454Y-122262754D01*
X113466982Y-122264311D01*
X113423998Y-122406014D01*
X113413532Y-122512274D01*
X113409324Y-122555000D01*
X113413001Y-122592332D01*
X113413000Y-125184677D01*
X113409324Y-125222000D01*
X113413000Y-125259322D01*
X113413000Y-125259332D01*
X113423997Y-125370985D01*
X113455344Y-125474324D01*
X113467454Y-125514246D01*
X113538026Y-125646276D01*
X113572667Y-125688486D01*
X113632999Y-125762001D01*
X113662003Y-125785804D01*
X113926696Y-126050497D01*
X113950499Y-126079501D01*
X114066224Y-126174474D01*
X114198253Y-126245046D01*
X114341514Y-126288503D01*
X114453167Y-126299500D01*
X114453177Y-126299500D01*
X114490500Y-126303176D01*
X114496303Y-126302604D01*
X115064001Y-126870302D01*
X115064000Y-127446500D01*
X109157486Y-127446500D01*
X109164859Y-127409434D01*
X109238135Y-127320147D01*
X109315671Y-127175088D01*
X109363417Y-127017690D01*
X109373945Y-126910798D01*
X109379539Y-126854002D01*
X109375499Y-126812983D01*
X109375499Y-126044017D01*
X109379539Y-126002999D01*
X109373901Y-125945754D01*
X109363417Y-125839310D01*
X109315671Y-125681912D01*
X109238135Y-125536853D01*
X109219582Y-125514246D01*
X109159938Y-125441569D01*
X109159936Y-125441567D01*
X109133790Y-125409708D01*
X109101931Y-125383562D01*
X107197500Y-123479133D01*
X107197500Y-123041285D01*
X107279705Y-122918256D01*
X107357726Y-122729898D01*
X107397500Y-122529939D01*
X107397500Y-122326061D01*
X107357726Y-122126102D01*
X107279705Y-121937744D01*
X107166437Y-121768226D01*
X107022274Y-121624063D01*
X106852756Y-121510795D01*
X106664398Y-121432774D01*
X106464439Y-121393000D01*
X106260561Y-121393000D01*
X106060602Y-121432774D01*
X105872244Y-121510795D01*
X105702726Y-121624063D01*
X105558563Y-121768226D01*
X105445295Y-121937744D01*
X105367274Y-122126102D01*
X105327500Y-122326061D01*
X105327500Y-122529939D01*
X105367274Y-122729898D01*
X105445295Y-122918256D01*
X105527501Y-123041286D01*
X105527500Y-123783981D01*
X105523460Y-123825000D01*
X105527500Y-123866018D01*
X105539582Y-123988688D01*
X105587328Y-124146086D01*
X105664864Y-124291145D01*
X105769209Y-124418291D01*
X105801079Y-124444446D01*
X107680778Y-126324147D01*
X107650244Y-126336795D01*
X107480726Y-126450063D01*
X107336563Y-126594226D01*
X107223295Y-126763744D01*
X107145274Y-126952102D01*
X107105500Y-127152061D01*
X107105500Y-127355939D01*
X107145274Y-127555898D01*
X107200617Y-127689507D01*
X107195700Y-127695498D01*
X106740498Y-128150701D01*
X106711500Y-128174499D01*
X106687702Y-128203497D01*
X106687701Y-128203498D01*
X106616526Y-128290224D01*
X106545954Y-128422254D01*
X106502498Y-128565515D01*
X106487824Y-128714500D01*
X106491501Y-128751832D01*
X106491500Y-130431000D01*
X104554578Y-130431000D01*
X104429875Y-130244368D01*
X104298020Y-130112513D01*
X104370580Y-130090502D01*
X104480894Y-130031537D01*
X104577585Y-129952185D01*
X104656937Y-129855494D01*
X104715902Y-129745180D01*
X104752212Y-129625482D01*
X104764472Y-129501000D01*
X104764472Y-127801000D01*
X104752212Y-127676518D01*
X104715902Y-127556820D01*
X104656937Y-127446506D01*
X104577585Y-127349815D01*
X104480894Y-127270463D01*
X104370580Y-127211498D01*
X104250882Y-127175188D01*
X104126400Y-127162928D01*
X102426400Y-127162928D01*
X102301918Y-127175188D01*
X102182220Y-127211498D01*
X102071906Y-127270463D01*
X101975215Y-127349815D01*
X101895863Y-127446506D01*
X101836898Y-127556820D01*
X101800588Y-127676518D01*
X101788328Y-127801000D01*
X100660000Y-127801000D01*
X100660000Y-115903500D01*
X102247928Y-115903500D01*
X102247928Y-117903500D01*
X102260188Y-118027982D01*
X102296498Y-118147680D01*
X102355463Y-118257994D01*
X102434815Y-118354685D01*
X102531506Y-118434037D01*
X102641820Y-118493002D01*
X102761518Y-118529312D01*
X102886000Y-118541572D01*
X104886000Y-118541572D01*
X105010482Y-118529312D01*
X105130180Y-118493002D01*
X105240494Y-118434037D01*
X105337185Y-118354685D01*
X105416537Y-118257994D01*
X105475502Y-118147680D01*
X105511812Y-118027982D01*
X105524072Y-117903500D01*
X105524072Y-116742467D01*
X109851000Y-116742467D01*
X109851000Y-117064533D01*
X109913832Y-117380412D01*
X110037082Y-117677963D01*
X110216013Y-117945752D01*
X110443748Y-118173487D01*
X110711537Y-118352418D01*
X110873001Y-118419299D01*
X110873000Y-122803789D01*
X110829063Y-122847726D01*
X110715795Y-123017244D01*
X110637774Y-123205602D01*
X110598000Y-123405561D01*
X110598000Y-123609439D01*
X110637774Y-123809398D01*
X110715795Y-123997756D01*
X110829063Y-124167274D01*
X110973226Y-124311437D01*
X111142744Y-124424705D01*
X111331102Y-124502726D01*
X111531061Y-124542500D01*
X111734939Y-124542500D01*
X111934898Y-124502726D01*
X112123256Y-124424705D01*
X112292774Y-124311437D01*
X112436937Y-124167274D01*
X112550205Y-123997756D01*
X112628226Y-123809398D01*
X112668000Y-123609439D01*
X112668000Y-123405561D01*
X112628226Y-123205602D01*
X112550205Y-123017244D01*
X112436937Y-122847726D01*
X112393000Y-122803789D01*
X112393000Y-118263860D01*
X112528252Y-118173487D01*
X112755987Y-117945752D01*
X112934918Y-117677963D01*
X113058168Y-117380412D01*
X113121000Y-117064533D01*
X113121000Y-116742467D01*
X113058168Y-116426588D01*
X112934918Y-116129037D01*
X112755987Y-115861248D01*
X112528252Y-115633513D01*
X112260463Y-115454582D01*
X111962912Y-115331332D01*
X111647033Y-115268500D01*
X111324967Y-115268500D01*
X111009088Y-115331332D01*
X110711537Y-115454582D01*
X110443748Y-115633513D01*
X110216013Y-115861248D01*
X110037082Y-116129037D01*
X109913832Y-116426588D01*
X109851000Y-116742467D01*
X105524072Y-116742467D01*
X105524072Y-115903500D01*
X105511812Y-115779018D01*
X105475502Y-115659320D01*
X105416537Y-115549006D01*
X105337185Y-115452315D01*
X105240494Y-115372963D01*
X105130180Y-115313998D01*
X105010482Y-115277688D01*
X104886000Y-115265428D01*
X102886000Y-115265428D01*
X102761518Y-115277688D01*
X102641820Y-115313998D01*
X102531506Y-115372963D01*
X102434815Y-115452315D01*
X102355463Y-115549006D01*
X102296498Y-115659320D01*
X102260188Y-115779018D01*
X102247928Y-115903500D01*
X100660000Y-115903500D01*
X100660000Y-106387561D01*
X113011000Y-106387561D01*
X113011000Y-106591439D01*
X113050774Y-106791398D01*
X113128795Y-106979756D01*
X113242063Y-107149274D01*
X113386226Y-107293437D01*
X113555744Y-107406705D01*
X113744102Y-107484726D01*
X113944061Y-107524500D01*
X114147939Y-107524500D01*
X114347898Y-107484726D01*
X114536256Y-107406705D01*
X114705774Y-107293437D01*
X114749711Y-107249500D01*
X116326789Y-107249500D01*
X116370726Y-107293437D01*
X116540244Y-107406705D01*
X116728602Y-107484726D01*
X116928561Y-107524500D01*
X117132439Y-107524500D01*
X117332398Y-107484726D01*
X117520756Y-107406705D01*
X117690274Y-107293437D01*
X117834437Y-107149274D01*
X117947705Y-106979756D01*
X118025726Y-106791398D01*
X118065500Y-106591439D01*
X118065500Y-106387561D01*
X118025726Y-106187602D01*
X117947705Y-105999244D01*
X117834437Y-105829726D01*
X117690274Y-105685563D01*
X117520756Y-105572295D01*
X117332398Y-105494274D01*
X117238517Y-105475600D01*
X122990928Y-105475600D01*
X122990928Y-107475600D01*
X123003188Y-107600082D01*
X123039498Y-107719780D01*
X123098463Y-107830094D01*
X123177815Y-107926785D01*
X123274506Y-108006137D01*
X123384820Y-108065102D01*
X123504518Y-108101412D01*
X123629000Y-108113672D01*
X126829000Y-108113672D01*
X126953482Y-108101412D01*
X127073180Y-108065102D01*
X127183494Y-108006137D01*
X127280185Y-107926785D01*
X127359537Y-107830094D01*
X127418502Y-107719780D01*
X127454812Y-107600082D01*
X127467072Y-107475600D01*
X127467072Y-105475600D01*
X127454812Y-105351118D01*
X127418502Y-105231420D01*
X127359537Y-105121106D01*
X127280185Y-105024415D01*
X127183494Y-104945063D01*
X127073180Y-104886098D01*
X126953482Y-104849788D01*
X126829000Y-104837528D01*
X123629000Y-104837528D01*
X123504518Y-104849788D01*
X123384820Y-104886098D01*
X123274506Y-104945063D01*
X123177815Y-105024415D01*
X123098463Y-105121106D01*
X123039498Y-105231420D01*
X123003188Y-105351118D01*
X122990928Y-105475600D01*
X117238517Y-105475600D01*
X117132439Y-105454500D01*
X116928561Y-105454500D01*
X116728602Y-105494274D01*
X116540244Y-105572295D01*
X116370726Y-105685563D01*
X116326789Y-105729500D01*
X114749711Y-105729500D01*
X114705774Y-105685563D01*
X114536256Y-105572295D01*
X114347898Y-105494274D01*
X114147939Y-105454500D01*
X113944061Y-105454500D01*
X113744102Y-105494274D01*
X113555744Y-105572295D01*
X113386226Y-105685563D01*
X113242063Y-105829726D01*
X113128795Y-105999244D01*
X113050774Y-106187602D01*
X113011000Y-106387561D01*
X100660000Y-106387561D01*
X100660000Y-101532277D01*
X100679102Y-101337460D01*
X100726308Y-101181106D01*
X100802982Y-101036904D01*
X100906207Y-100910337D01*
X101032051Y-100806231D01*
X101175711Y-100728553D01*
X101331729Y-100680258D01*
X101524473Y-100660000D01*
X110947253Y-100660000D01*
X110919188Y-100752518D01*
M02*
