EESchema Schematic File Version 4
EELAYER 30 0
EELAYER END
$Descr A4 11693 8268
encoding utf-8
Sheet 1 1
Title ""
Date ""
Rev ""
Comp ""
Comment1 ""
Comment2 ""
Comment3 ""
Comment4 ""
$EndDescr
$Comp
L Connector:Conn_01x08_Female J1
U 1 1 5D6ECF49
P 2550 3200
F 0 "J1" H 2578 3176 50  0000 L CNN
F 1 "Conn_01x12_Female" H 2578 3085 50  0001 L CNN
F 2 "Connector_PinSocket_2.54mm:PinSocket_1x08_P2.54mm_Vertical" H 2550 3200 50  0001 C CNN
F 3 "~" H 2550 3200 50  0001 C CNN
	1    2550 3200
	1    0    0    -1  
$EndComp
$Comp
L Device:Buzzer BZ1
U 1 1 5D6F22C8
P 7100 1600
F 0 "BZ1" H 7252 1629 50  0000 L CNN
F 1 "Buzzer" H 7252 1538 50  0000 L CNN
F 2 "kicad_libs1:Belstar_BPT14LF_13.8x7.6" V 7075 1700 50  0001 C CNN
F 3 "~" V 7075 1700 50  0001 C CNN
	1    7100 1600
	1    0    0    -1  
$EndComp
Text GLabel 2050 3500 0    50   Input ~ 0
SPI_SS
Wire Wire Line
	2050 3500 2350 3500
Text GLabel 2050 3400 0    50   Input ~ 0
SPI_MOSI
Text GLabel 2050 3300 0    50   Input ~ 0
ENC_DT
Text GLabel 2050 3200 0    50   Input ~ 0
SPI_SCK
Wire Wire Line
	2050 3200 2350 3200
Wire Wire Line
	2050 3300 2350 3300
Wire Wire Line
	2050 3400 2350 3400
$Comp
L power:+3.3V #PWR0103
U 1 1 5D70BB61
P 4150 1400
F 0 "#PWR0103" H 4150 1250 50  0001 C CNN
F 1 "+3.3V" H 4165 1573 50  0000 C CNN
F 2 "" H 4150 1400 50  0001 C CNN
F 3 "" H 4150 1400 50  0001 C CNN
	1    4150 1400
	1    0    0    -1  
$EndComp
$Comp
L power:GND #PWR0104
U 1 1 5D70EEEF
P 4150 2150
F 0 "#PWR0104" H 4150 1900 50  0001 C CNN
F 1 "GND" H 4155 1977 50  0000 C CNN
F 2 "" H 4150 2150 50  0001 C CNN
F 3 "" H 4150 2150 50  0001 C CNN
	1    4150 2150
	1    0    0    -1  
$EndComp
Wire Wire Line
	4150 1600 4150 1400
Wire Wire Line
	3300 1600 4150 1600
Wire Wire Line
	3300 1700 4150 1700
Wire Wire Line
	4150 1700 4150 2150
Text GLabel 3550 1800 2    50   Input ~ 0
SPI_MOSI
Text GLabel 3550 1900 2    50   Input ~ 0
SPI_SS
Text GLabel 3550 2000 2    50   Input ~ 0
SPI_SCK
Wire Wire Line
	3300 1800 3550 1800
Wire Wire Line
	3300 1900 3550 1900
Wire Wire Line
	3300 2000 3550 2000
$Comp
L power:+3.3V #PWR0106
U 1 1 5D7203CB
P 2000 1450
F 0 "#PWR0106" H 2000 1300 50  0001 C CNN
F 1 "+3.3V" H 2015 1623 50  0000 C CNN
F 2 "" H 2000 1450 50  0001 C CNN
F 3 "" H 2000 1450 50  0001 C CNN
	1    2000 1450
	1    0    0    -1  
$EndComp
$Comp
L power:GND #PWR0107
U 1 1 5D7284BA
P 2000 2200
F 0 "#PWR0107" H 2000 1950 50  0001 C CNN
F 1 "GND" H 2005 2027 50  0000 C CNN
F 2 "" H 2000 2200 50  0001 C CNN
F 3 "" H 2000 2200 50  0001 C CNN
	1    2000 2200
	1    0    0    -1  
$EndComp
Wire Wire Line
	2000 1650 2000 1450
Wire Wire Line
	2000 1950 2000 2200
Text GLabel 5550 2000 0    50   Input ~ 0
BUZZER
Text GLabel 2050 3100 0    50   Input ~ 0
BUZZER
Wire Wire Line
	2350 3100 2050 3100
$Comp
L Sensor_Temperature:LM75B U1
U 1 1 5D704091
P 8450 3200
F 0 "U1" H 8450 3881 50  0000 C CNN
F 1 "LM75B" H 8450 3790 50  0000 C CNN
F 2 "Package_SO:SO-8_5.3x6.2mm_P1.27mm" H 8450 3200 50  0001 C CNN
F 3 "http://www.ti.com/lit/ds/symlink/lm75b.pdf" H 8450 3200 50  0001 C CNN
	1    8450 3200
	1    0    0    -1  
$EndComp
$Comp
L Transistor_BJT:BC818 Q1
U 1 1 5DFBE9B4
P 6300 2000
F 0 "Q1" H 6491 2046 50  0000 L CNN
F 1 "2n2222" H 6491 1955 50  0000 L CNN
F 2 "Package_TO_SOT_SMD:SOT-23" H 6500 1925 50  0001 L CIN
F 3 "http://www.fairchildsemi.com/ds/PN/PN2222A.pdf" H 6300 2000 50  0001 L CNN
	1    6300 2000
	1    0    0    -1  
$EndComp
$Comp
L power:GND #PWR0105
U 1 1 5DFDBE50
P 6400 2300
F 0 "#PWR0105" H 6400 2050 50  0001 C CNN
F 1 "GND" H 6405 2127 50  0000 C CNN
F 2 "" H 6400 2300 50  0001 C CNN
F 3 "" H 6400 2300 50  0001 C CNN
	1    6400 2300
	1    0    0    -1  
$EndComp
Wire Wire Line
	6400 2200 6400 2300
Wire Wire Line
	6400 1800 6400 1700
Wire Wire Line
	6700 1250 6700 1500
$Comp
L Device:R_Small R1
U 1 1 5DFF911A
P 5850 2000
F 0 "R1" V 5654 2000 50  0000 C CNN
F 1 "1.2K" V 5745 2000 50  0000 C CNN
F 2 "Resistor_SMD:R_0805_2012Metric_Pad1.15x1.40mm_HandSolder" V 5746 2000 50  0001 C CNN
F 3 "~" H 5850 2000 50  0001 C CNN
	1    5850 2000
	0    1    1    0   
$EndComp
Wire Wire Line
	6100 2000 5950 2000
Wire Wire Line
	5550 2000 5750 2000
Connection ~ 6700 1500
Wire Wire Line
	6400 1700 6700 1700
Connection ~ 6700 1700
Wire Wire Line
	6700 1500 7000 1500
Wire Wire Line
	6700 1700 7000 1700
$Comp
L Device:R_Small R2
U 1 1 5DFFAE19
P 6700 1600
F 0 "R2" H 6759 1646 50  0000 L CNN
F 1 "1K" H 6759 1555 50  0000 L CNN
F 2 "Resistor_SMD:R_0805_2012Metric_Pad1.15x1.40mm_HandSolder" H 6700 1600 50  0001 C CNN
F 3 "~" H 6700 1600 50  0001 C CNN
	1    6700 1600
	1    0    0    -1  
$EndComp
$Comp
L Connector:Conn_01x08_Female J2
U 1 1 5D6F12AE
P 3150 3200
F 0 "J2" H 3178 3176 50  0000 L CNN
F 1 "Conn_01x12_Female" H 3178 3085 50  0001 L CNN
F 2 "Connector_PinSocket_2.54mm:PinSocket_1x08_P2.54mm_Vertical" H 3150 3200 50  0001 C CNN
F 3 "~" H 3150 3200 50  0001 C CNN
	1    3150 3200
	-1   0    0    -1  
$EndComp
$Comp
L power:GND #PWR0102
U 1 1 5E01A915
P 4200 3650
F 0 "#PWR0102" H 4200 3400 50  0001 C CNN
F 1 "GND" H 4205 3477 50  0000 C CNN
F 2 "" H 4200 3650 50  0001 C CNN
F 3 "" H 4200 3650 50  0001 C CNN
	1    4200 3650
	1    0    0    -1  
$EndComp
Wire Wire Line
	4200 3500 4200 3650
Text Notes 2700 3100 0    50   ~ 0
ESP8266\nD1 Mini
Text GLabel 3700 3100 2    50   Input ~ 0
I2C_SCL
Text GLabel 3700 3200 2    50   Input ~ 0
I2C_SDA
Wire Wire Line
	3350 3100 3700 3100
Wire Wire Line
	3350 3200 3700 3200
Wire Wire Line
	3350 3500 4200 3500
$Comp
L power:+3.3V #PWR0108
U 1 1 5E0373CE
P 6700 1250
F 0 "#PWR0108" H 6700 1100 50  0001 C CNN
F 1 "+3.3V" H 6715 1423 50  0000 C CNN
F 2 "" H 6700 1250 50  0001 C CNN
F 3 "" H 6700 1250 50  0001 C CNN
	1    6700 1250
	1    0    0    -1  
$EndComp
Text GLabel 3700 3600 2    50   Input ~ 0
5V
Wire Wire Line
	3700 3600 3350 3600
Text GLabel 3700 3300 2    50   Input ~ 0
ENC_CLK
Text GLabel 3700 3400 2    50   Input ~ 0
ENC_SW
Wire Wire Line
	3350 3300 3700 3300
Wire Wire Line
	3350 3400 3700 3400
Text GLabel 2050 3000 0    50   Input ~ 0
ADC
Wire Wire Line
	2350 3000 2050 3000
Text GLabel 3700 3000 2    50   Input ~ 0
UART_RX
Text GLabel 3700 2900 2    50   Input ~ 0
UART_TX
Wire Wire Line
	3350 2900 3700 2900
Wire Wire Line
	3350 3000 3700 3000
Text GLabel 2050 2900 0    50   Input ~ 0
RESET
Wire Wire Line
	2350 2900 2050 2900
$Comp
L Connector:Conn_01x05_Male J3
U 1 1 5D6F48BF
P 3100 1800
F 0 "J3" H 3208 2181 50  0000 C CNN
F 1 "Display connector" H 3208 2090 50  0000 C CNN
F 2 "Connector_PinHeader_2.54mm:PinHeader_1x05_P2.54mm_Vertical" H 3100 1800 50  0001 C CNN
F 3 "~" H 3100 1800 50  0001 C CNN
	1    3100 1800
	1    0    0    -1  
$EndComp
Text GLabel 5550 3400 0    50   Input ~ 0
I2C_SCL
Text GLabel 5550 3550 0    50   Input ~ 0
I2C_SDA
$Comp
L Device:R_Small R3
U 1 1 5E07BE7F
P 5800 3200
F 0 "R3" H 5859 3246 50  0000 L CNN
F 1 "4.7K" H 5859 3155 50  0000 L CNN
F 2 "Resistor_SMD:R_0805_2012Metric_Pad1.15x1.40mm_HandSolder" H 5800 3200 50  0001 C CNN
F 3 "~" H 5800 3200 50  0001 C CNN
	1    5800 3200
	1    0    0    -1  
$EndComp
$Comp
L Device:R_Small R4
U 1 1 5E07CC09
P 6100 3200
F 0 "R4" H 6159 3246 50  0000 L CNN
F 1 "4.7K" H 6159 3155 50  0000 L CNN
F 2 "Resistor_SMD:R_0805_2012Metric_Pad1.15x1.40mm_HandSolder" H 6100 3200 50  0001 C CNN
F 3 "~" H 6100 3200 50  0001 C CNN
	1    6100 3200
	1    0    0    -1  
$EndComp
Wire Wire Line
	5800 3400 5800 3300
Wire Wire Line
	5550 3400 5800 3400
Wire Wire Line
	5550 3550 6100 3550
Wire Wire Line
	6100 3550 6100 3300
$Comp
L power:+3.3V #PWR01
U 1 1 5E08CB6B
P 5800 3000
F 0 "#PWR01" H 5800 2850 50  0001 C CNN
F 1 "+3.3V" H 5815 3173 50  0000 C CNN
F 2 "" H 5800 3000 50  0001 C CNN
F 3 "" H 5800 3000 50  0001 C CNN
	1    5800 3000
	1    0    0    -1  
$EndComp
$Comp
L power:+3.3V #PWR02
U 1 1 5E08D28A
P 6100 3000
F 0 "#PWR02" H 6100 2850 50  0001 C CNN
F 1 "+3.3V" H 6115 3173 50  0000 C CNN
F 2 "" H 6100 3000 50  0001 C CNN
F 3 "" H 6100 3000 50  0001 C CNN
	1    6100 3000
	1    0    0    -1  
$EndComp
Wire Wire Line
	6100 3000 6100 3100
Wire Wire Line
	5800 3000 5800 3100
Text GLabel 7750 3100 0    50   Input ~ 0
I2C_SDA
Text GLabel 7750 3200 0    50   Input ~ 0
I2C_SCL
$Comp
L power:GND #PWR04
U 1 1 5E0A3705
P 8450 3850
F 0 "#PWR04" H 8450 3600 50  0001 C CNN
F 1 "GND" H 8455 3677 50  0000 C CNN
F 2 "" H 8450 3850 50  0001 C CNN
F 3 "" H 8450 3850 50  0001 C CNN
	1    8450 3850
	1    0    0    -1  
$EndComp
$Comp
L power:+3.3V #PWR03
U 1 1 5E0A3BD1
P 8150 2550
F 0 "#PWR03" H 8150 2400 50  0001 C CNN
F 1 "+3.3V" H 8165 2723 50  0000 C CNN
F 2 "" H 8150 2550 50  0001 C CNN
F 3 "" H 8150 2550 50  0001 C CNN
	1    8150 2550
	1    0    0    -1  
$EndComp
Wire Wire Line
	8450 2700 8150 2700
Wire Wire Line
	8150 2700 8150 2550
Wire Wire Line
	8450 3700 8450 3850
Wire Wire Line
	7750 3100 8050 3100
Wire Wire Line
	7750 3200 8050 3200
$Comp
L Device:C C2
U 1 1 5E0ABF21
P 9000 2700
F 0 "C2" V 8748 2700 50  0000 C CNN
F 1 "100nF" V 8839 2700 50  0000 C CNN
F 2 "Capacitor_SMD:C_0805_2012Metric_Pad1.15x1.40mm_HandSolder" H 9038 2550 50  0001 C CNN
F 3 "~" H 9000 2700 50  0001 C CNN
	1    9000 2700
	0    1    1    0   
$EndComp
$Comp
L power:GND #PWR09
U 1 1 5E0B555A
P 9200 3850
F 0 "#PWR09" H 9200 3600 50  0001 C CNN
F 1 "GND" H 9205 3677 50  0000 C CNN
F 2 "" H 9200 3850 50  0001 C CNN
F 3 "" H 9200 3850 50  0001 C CNN
	1    9200 3850
	1    0    0    -1  
$EndComp
Wire Wire Line
	8850 3100 9200 3100
Wire Wire Line
	9200 3100 9200 3200
Wire Wire Line
	8850 3200 9200 3200
Connection ~ 9200 3200
Wire Wire Line
	9200 3200 9200 3300
Wire Wire Line
	8850 3300 9200 3300
Connection ~ 9200 3300
Wire Wire Line
	9200 3300 9200 3850
Text Notes 7600 3750 0    50   ~ 0
I2C Address: 0x48
Wire Wire Line
	9150 2700 9200 2700
Wire Wire Line
	9200 2700 9200 3100
Connection ~ 9200 3100
Wire Wire Line
	8850 2700 8450 2700
Connection ~ 8450 2700
$Comp
L Device:Rotary_Encoder_Switch SW1
U 1 1 5E0CE463
P 2850 5350
F 0 "SW1" H 2850 5717 50  0000 C CNN
F 1 "Rotary_Encoder_Switch" H 2850 5626 50  0000 C CNN
F 2 "Rotary_Encoder:RotaryEncoder_Alps_EC11E-Switch_Vertical_H20mm" H 2700 5510 50  0001 C CNN
F 3 "~" H 2850 5610 50  0001 C CNN
	1    2850 5350
	1    0    0    -1  
$EndComp
$Comp
L power:GND #PWR08
U 1 1 5E0D22B2
P 3600 5800
F 0 "#PWR08" H 3600 5550 50  0001 C CNN
F 1 "GND" H 3605 5627 50  0000 C CNN
F 2 "" H 3600 5800 50  0001 C CNN
F 3 "" H 3600 5800 50  0001 C CNN
	1    3600 5800
	1    0    0    -1  
$EndComp
Wire Wire Line
	3600 5450 3600 5800
Wire Wire Line
	3150 5450 3600 5450
Text GLabel 3850 5250 2    50   Input ~ 0
ENC_SW
Text GLabel 1500 5250 0    50   Input ~ 0
ENC_CLK
Text GLabel 1500 5450 0    50   Input ~ 0
ENC_DT
$Comp
L power:GND #PWR07
U 1 1 5E0DDBF5
P 2300 5800
F 0 "#PWR07" H 2300 5550 50  0001 C CNN
F 1 "GND" H 2305 5627 50  0000 C CNN
F 2 "" H 2300 5800 50  0001 C CNN
F 3 "" H 2300 5800 50  0001 C CNN
	1    2300 5800
	1    0    0    -1  
$EndComp
Wire Wire Line
	2550 5350 2300 5350
Wire Wire Line
	2300 5350 2300 5800
$Comp
L Device:R_Small R5
U 1 1 5E0DF5F6
P 1700 5000
F 0 "R5" H 1759 5046 50  0000 L CNN
F 1 "10K" H 1759 4955 50  0000 L CNN
F 2 "Resistor_SMD:R_0805_2012Metric_Pad1.15x1.40mm_HandSolder" H 1700 5000 50  0001 C CNN
F 3 "~" H 1700 5000 50  0001 C CNN
	1    1700 5000
	1    0    0    -1  
$EndComp
$Comp
L Device:R_Small R6
U 1 1 5E0E004F
P 2000 5000
F 0 "R6" H 2059 5046 50  0000 L CNN
F 1 "10K" H 2059 4955 50  0000 L CNN
F 2 "Resistor_SMD:R_0805_2012Metric_Pad1.15x1.40mm_HandSolder" H 2000 5000 50  0001 C CNN
F 3 "~" H 2000 5000 50  0001 C CNN
	1    2000 5000
	1    0    0    -1  
$EndComp
Wire Wire Line
	1500 5250 2000 5250
Wire Wire Line
	1500 5450 1700 5450
Wire Wire Line
	2000 5100 2000 5250
Connection ~ 2000 5250
Wire Wire Line
	2000 5250 2550 5250
Wire Wire Line
	1700 5100 1700 5450
Connection ~ 1700 5450
Wire Wire Line
	1700 5450 2550 5450
$Comp
L power:+3.3V #PWR05
U 1 1 5E0EB50A
P 1700 4750
F 0 "#PWR05" H 1700 4600 50  0001 C CNN
F 1 "+3.3V" H 1715 4923 50  0000 C CNN
F 2 "" H 1700 4750 50  0001 C CNN
F 3 "" H 1700 4750 50  0001 C CNN
	1    1700 4750
	1    0    0    -1  
$EndComp
$Comp
L power:+3.3V #PWR06
U 1 1 5E0EC455
P 2000 4750
F 0 "#PWR06" H 2000 4600 50  0001 C CNN
F 1 "+3.3V" H 2015 4923 50  0000 C CNN
F 2 "" H 2000 4750 50  0001 C CNN
F 3 "" H 2000 4750 50  0001 C CNN
	1    2000 4750
	1    0    0    -1  
$EndComp
Wire Wire Line
	2000 4750 2000 4900
Wire Wire Line
	1700 4750 1700 4900
$Comp
L Connector:Conn_01x05_Male J4
U 1 1 5E12D861
P 5100 5250
F 0 "J4" H 5208 5631 50  0000 C CNN
F 1 "Encoder connector" H 5208 5540 50  0000 C CNN
F 2 "Connector_PinHeader_2.54mm:PinHeader_1x05_P2.54mm_Vertical" H 5100 5250 50  0001 C CNN
F 3 "~" H 5100 5250 50  0001 C CNN
	1    5100 5250
	1    0    0    -1  
$EndComp
$Comp
L power:GND #PWR011
U 1 1 5E131742
P 6200 5600
F 0 "#PWR011" H 6200 5350 50  0001 C CNN
F 1 "GND" H 6205 5427 50  0000 C CNN
F 2 "" H 6200 5600 50  0001 C CNN
F 3 "" H 6200 5600 50  0001 C CNN
	1    6200 5600
	1    0    0    -1  
$EndComp
$Comp
L power:+3.3V #PWR010
U 1 1 5E131DF8
P 6200 5300
F 0 "#PWR010" H 6200 5150 50  0001 C CNN
F 1 "+3.3V" H 6215 5473 50  0000 C CNN
F 2 "" H 6200 5300 50  0001 C CNN
F 3 "" H 6200 5300 50  0001 C CNN
	1    6200 5300
	1    0    0    -1  
$EndComp
Text GLabel 5600 5250 2    50   Input ~ 0
ENC_SW
Text GLabel 5600 5150 2    50   Input ~ 0
ENC_DT
Text GLabel 5600 5050 2    50   Input ~ 0
ENC_CLK
Wire Wire Line
	5300 5050 5600 5050
Wire Wire Line
	5300 5150 5600 5150
Wire Wire Line
	5300 5250 5600 5250
Wire Wire Line
	5300 5350 6200 5350
Wire Wire Line
	6200 5350 6200 5300
Wire Wire Line
	5300 5450 6200 5450
Wire Wire Line
	6200 5450 6200 5600
$Comp
L Connector:Conn_01x02_Male J5
U 1 1 5E15359B
P 7600 5100
F 0 "J5" H 7708 5281 50  0000 C CNN
F 1 "ADC connector" H 7708 5190 50  0000 C CNN
F 2 "Connector_PinHeader_2.54mm:PinHeader_1x02_P2.54mm_Vertical" H 7600 5100 50  0001 C CNN
F 3 "~" H 7600 5100 50  0001 C CNN
	1    7600 5100
	1    0    0    -1  
$EndComp
$Comp
L power:GND #PWR012
U 1 1 5E154A46
P 8200 5300
F 0 "#PWR012" H 8200 5050 50  0001 C CNN
F 1 "GND" H 8205 5127 50  0000 C CNN
F 2 "" H 8200 5300 50  0001 C CNN
F 3 "" H 8200 5300 50  0001 C CNN
	1    8200 5300
	1    0    0    -1  
$EndComp
Text GLabel 8100 5100 2    50   Input ~ 0
ADC
Wire Wire Line
	7800 5100 8100 5100
Wire Wire Line
	8200 5200 8200 5300
Wire Wire Line
	7800 5200 8200 5200
Text Notes 5150 2900 0    50   ~ 0
I2C pullup
Text Notes 7950 2300 0    50   ~ 0
LM75A temperature sensor\n
$Comp
L Connector_Generic:Conn_01x02 J6
U 1 1 5DFE2D5C
P 8700 1600
F 0 "J6" H 8780 1592 50  0000 L CNN
F 1 "Conn_01x02" H 8780 1501 50  0000 L CNN
F 2 "Connector_PinHeader_2.54mm:PinHeader_1x02_P2.54mm_Vertical" H 8700 1600 50  0001 C CNN
F 3 "~" H 8700 1600 50  0001 C CNN
	1    8700 1600
	1    0    0    -1  
$EndComp
Text GLabel 5550 1700 0    50   Input ~ 0
BUZZER_OUT
Wire Wire Line
	6400 1700 5550 1700
Connection ~ 6400 1700
Text GLabel 8300 1700 0    50   Input ~ 0
BUZZER_OUT
Wire Wire Line
	8500 1700 8300 1700
$Comp
L power:+3.3V #PWR013
U 1 1 5DFF313F
P 8250 1450
F 0 "#PWR013" H 8250 1300 50  0001 C CNN
F 1 "+3.3V" H 8265 1623 50  0000 C CNN
F 2 "" H 8250 1450 50  0001 C CNN
F 3 "" H 8250 1450 50  0001 C CNN
	1    8250 1450
	1    0    0    -1  
$EndComp
Wire Wire Line
	8500 1600 8250 1600
Wire Wire Line
	8250 1600 8250 1450
$Comp
L Connector_Generic:Conn_01x04 J7
U 1 1 5E0099B7
P 10250 5150
F 0 "J7" H 10330 5142 50  0000 L CNN
F 1 "Conn_01x04" H 10330 5051 50  0000 L CNN
F 2 "Connector_PinHeader_2.54mm:PinHeader_1x04_P2.54mm_Vertical" H 10250 5150 50  0001 C CNN
F 3 "~" H 10250 5150 50  0001 C CNN
	1    10250 5150
	1    0    0    -1  
$EndComp
Text GLabel 9750 5250 0    50   Input ~ 0
I2C_SCL
Text GLabel 9750 5350 0    50   Input ~ 0
I2C_SDA
Wire Wire Line
	9750 5250 10050 5250
Wire Wire Line
	9750 5350 10050 5350
$Comp
L power:GND #PWR015
U 1 1 5E01098F
P 9100 5400
F 0 "#PWR015" H 9100 5150 50  0001 C CNN
F 1 "GND" H 9105 5227 50  0000 C CNN
F 2 "" H 9100 5400 50  0001 C CNN
F 3 "" H 9100 5400 50  0001 C CNN
	1    9100 5400
	1    0    0    -1  
$EndComp
$Comp
L power:+3.3V #PWR014
U 1 1 5E01133A
P 9100 4850
F 0 "#PWR014" H 9100 4700 50  0001 C CNN
F 1 "+3.3V" H 9115 5023 50  0000 C CNN
F 2 "" H 9100 4850 50  0001 C CNN
F 3 "" H 9100 4850 50  0001 C CNN
	1    9100 4850
	1    0    0    -1  
$EndComp
Wire Wire Line
	10050 5150 9100 5150
Wire Wire Line
	9100 5150 9100 5400
Wire Wire Line
	10050 5050 9100 5050
Wire Wire Line
	9100 5050 9100 4850
Text Notes 7350 7500 0    50   ~ 10
aura smartclock
Text Notes 10600 7650 0    50   ~ 10
1
Text GLabel 1600 6950 0    50   Input ~ 0
SPI_SCK
Text GLabel 1600 7150 0    50   Input ~ 0
SPI_MOSI
$Comp
L Device:R_Small R7
U 1 1 5E02A90C
P 1850 6750
F 0 "R7" H 1909 6796 50  0000 L CNN
F 1 "10K" H 1909 6705 50  0000 L CNN
F 2 "Resistor_SMD:R_0805_2012Metric_Pad1.15x1.40mm_HandSolder" H 1850 6750 50  0001 C CNN
F 3 "~" H 1850 6750 50  0001 C CNN
	1    1850 6750
	1    0    0    -1  
$EndComp
$Comp
L Device:R_Small R8
U 1 1 5E02ABD9
P 2300 6750
F 0 "R8" H 2359 6796 50  0000 L CNN
F 1 "10K" H 2359 6705 50  0000 L CNN
F 2 "Resistor_SMD:R_0805_2012Metric_Pad1.15x1.40mm_HandSolder" H 2300 6750 50  0001 C CNN
F 3 "~" H 2300 6750 50  0001 C CNN
	1    2300 6750
	1    0    0    -1  
$EndComp
Wire Wire Line
	1600 6950 1850 6950
Wire Wire Line
	1850 6950 1850 6850
Wire Wire Line
	1600 7150 2300 7150
Wire Wire Line
	2300 7150 2300 6850
$Comp
L power:+3.3V #PWR016
U 1 1 5E034D8C
P 1850 6450
F 0 "#PWR016" H 1850 6300 50  0001 C CNN
F 1 "+3.3V" H 1865 6623 50  0000 C CNN
F 2 "" H 1850 6450 50  0001 C CNN
F 3 "" H 1850 6450 50  0001 C CNN
	1    1850 6450
	1    0    0    -1  
$EndComp
$Comp
L power:+3.3V #PWR017
U 1 1 5E035A2A
P 2300 6450
F 0 "#PWR017" H 2300 6300 50  0001 C CNN
F 1 "+3.3V" H 2315 6623 50  0000 C CNN
F 2 "" H 2300 6450 50  0001 C CNN
F 3 "" H 2300 6450 50  0001 C CNN
	1    2300 6450
	1    0    0    -1  
$EndComp
Wire Wire Line
	2300 6450 2300 6650
Wire Wire Line
	1850 6450 1850 6650
Text Notes 1150 6350 0    50   ~ 0
SPI pullup
$Comp
L Regulator_Linear:MCP1825S U2
U 1 1 5E04009B
P 4450 6800
F 0 "U2" H 4450 7042 50  0000 C CNN
F 1 "MCP1825S" H 4450 6951 50  0000 C CNN
F 2 "Package_TO_SOT_SMD:SOT-223" H 4350 6950 50  0001 C CNN
F 3 "http://ww1.microchip.com/downloads/en/devicedoc/22056b.pdf" H 4450 7050 50  0001 C CNN
	1    4450 6800
	1    0    0    -1  
$EndComp
$Comp
L Device:C_Small C3
U 1 1 5E047F3A
P 3700 7050
F 0 "C3" H 3792 7096 50  0000 L CNN
F 1 "4.7uF" H 3792 7005 50  0000 L CNN
F 2 "Capacitor_SMD:C_0805_2012Metric_Pad1.15x1.40mm_HandSolder" H 3700 7050 50  0001 C CNN
F 3 "~" H 3700 7050 50  0001 C CNN
	1    3700 7050
	1    0    0    -1  
$EndComp
$Comp
L Device:C_Small C4
U 1 1 5E048350
P 5100 7050
F 0 "C4" H 5192 7096 50  0000 L CNN
F 1 "1uF" H 5192 7005 50  0000 L CNN
F 2 "Capacitor_SMD:C_0805_2012Metric_Pad1.15x1.40mm_HandSolder" H 5100 7050 50  0001 C CNN
F 3 "~" H 5100 7050 50  0001 C CNN
	1    5100 7050
	1    0    0    -1  
$EndComp
Wire Wire Line
	5100 6950 5100 6800
Wire Wire Line
	5100 6800 4750 6800
Wire Wire Line
	4150 6800 3700 6800
Wire Wire Line
	3700 6800 3700 6950
$Comp
L power:GND #PWR018
U 1 1 5E057F93
P 3700 7300
F 0 "#PWR018" H 3700 7050 50  0001 C CNN
F 1 "GND" H 3705 7127 50  0000 C CNN
F 2 "" H 3700 7300 50  0001 C CNN
F 3 "" H 3700 7300 50  0001 C CNN
	1    3700 7300
	1    0    0    -1  
$EndComp
$Comp
L power:GND #PWR020
U 1 1 5E058478
P 5100 7300
F 0 "#PWR020" H 5100 7050 50  0001 C CNN
F 1 "GND" H 5105 7127 50  0000 C CNN
F 2 "" H 5100 7300 50  0001 C CNN
F 3 "" H 5100 7300 50  0001 C CNN
	1    5100 7300
	1    0    0    -1  
$EndComp
Wire Wire Line
	5100 7150 5100 7300
Wire Wire Line
	3700 7150 3700 7300
$Comp
L power:GND #PWR019
U 1 1 5E05E308
P 4450 7300
F 0 "#PWR019" H 4450 7050 50  0001 C CNN
F 1 "GND" H 4455 7127 50  0000 C CNN
F 2 "" H 4450 7300 50  0001 C CNN
F 3 "" H 4450 7300 50  0001 C CNN
	1    4450 7300
	1    0    0    -1  
$EndComp
Wire Wire Line
	4450 7100 4450 7300
Text GLabel 3250 6800 0    50   Input ~ 0
5V
Wire Wire Line
	3250 6800 3700 6800
Connection ~ 3700 6800
Text GLabel 2050 3600 0    50   Input ~ 0
3V3_ESP
Wire Wire Line
	2050 3600 2350 3600
$Comp
L power:+3.3V #PWR021
U 1 1 5E06F2A9
P 5550 6650
F 0 "#PWR021" H 5550 6500 50  0001 C CNN
F 1 "+3.3V" H 5565 6823 50  0000 C CNN
F 2 "" H 5550 6650 50  0001 C CNN
F 3 "" H 5550 6650 50  0001 C CNN
	1    5550 6650
	1    0    0    -1  
$EndComp
Wire Wire Line
	5100 6800 5550 6800
Wire Wire Line
	5550 6800 5550 6650
Connection ~ 5100 6800
$Comp
L Device:CP C1
U 1 1 5D6F400C
P 2000 1800
F 0 "C1" H 2118 1846 50  0000 L CNN
F 1 "100uF" H 2118 1755 50  0000 L CNN
F 2 "Capacitor_SMD:CP_Elec_8x10" H 2038 1650 50  0001 C CNN
F 3 "~" H 2000 1800 50  0001 C CNN
	1    2000 1800
	1    0    0    -1  
$EndComp
$Comp
L Device:R_Small R9
U 1 1 5E18329D
P 3600 5000
F 0 "R9" H 3659 5046 50  0000 L CNN
F 1 "10K" H 3659 4955 50  0000 L CNN
F 2 "Resistor_SMD:R_0805_2012Metric_Pad1.15x1.40mm_HandSolder" H 3600 5000 50  0001 C CNN
F 3 "~" H 3600 5000 50  0001 C CNN
	1    3600 5000
	1    0    0    -1  
$EndComp
Wire Wire Line
	3150 5250 3600 5250
$Comp
L power:+3.3V #PWR022
U 1 1 5E190F44
P 3600 4750
F 0 "#PWR022" H 3600 4600 50  0001 C CNN
F 1 "+3.3V" H 3615 4923 50  0000 C CNN
F 2 "" H 3600 4750 50  0001 C CNN
F 3 "" H 3600 4750 50  0001 C CNN
	1    3600 4750
	1    0    0    -1  
$EndComp
Wire Wire Line
	3600 4750 3600 4900
Wire Wire Line
	3600 5100 3600 5250
Connection ~ 3600 5250
Wire Wire Line
	3600 5250 3850 5250
$EndSCHEMATC
